<?xml version='1.0' encoding='UTF-8'?>
<!-- This file was generated by dvisvgm 2.8.1 -->
<svg version='1.1' xmlns='http://www.w3.org/2000/svg' xmlns:xlink='http://www.w3.org/1999/xlink' width='755.412159pt' height='29.756639pt' viewBox='404.428097 45.521041 755.412159 29.756639'>
<defs>
<path id='g1-40' d='M3.158157-7.47198C3.01868-7.422167 2.839352-7.222914 2.719801-7.103362C1.494396-5.877958 .996264-4.184309 .996264-2.500623C.996264-.697385 1.58406 1.225405 3.048568 2.400996C3.098381 2.430884 3.158157 2.480697 3.217933 2.480697S3.307597 2.420922 3.307597 2.381071C3.307597 2.271482 3.038605 2.062267 2.929016 1.932752C1.902864 .707347 1.58406-.926526 1.58406-2.49066C1.58406-4.134496 1.912827-5.937733 3.148194-7.173101C3.20797-7.232877 3.307597-7.302615 3.307597-7.382316C3.307597-7.442092 3.257783-7.481943 3.198007-7.481943C3.188045-7.481943 3.16812-7.47198 3.158157-7.47198Z'/>
<path id='g1-41' d='M.617684-7.47198C.577833-7.452055 .557908-7.422167 .557908-7.392279C.557908-7.272727 .787049-7.103362 .896638-6.983811C1.96264-5.748443 2.281445-4.064757 2.281445-2.49066C2.281445-.886675 1.952677 .936488 .757161 2.132005C.687422 2.201743 .557908 2.30137 .557908 2.381071C.557908 2.430884 .607721 2.480697 .667497 2.480697H.67746C.797011 2.460772 .996264 2.251557 1.115816 2.132005C2.371108 .876712 2.86924-.816936 2.86924-2.510585C2.86924-4.343711 2.271482-6.166874 .816936-7.402242C.767123-7.43213 .71731-7.481943 .657534-7.481943C.647572-7.481943 .637609-7.481943 .617684-7.47198Z'/>
<path id='g1-49' d='M.896638-6.007472V-5.69863C1.325031-5.69863 1.803238-5.748443 2.191781-5.957659V-.757161C2.191781-.368618 1.8132-.308842 1.424658-.308842C1.255293-.308842 1.085928-.318804 .946451-.318804V-.009963H4.184309V-.318804C4.014944-.318804 3.845579-.308842 3.686177-.308842C3.287671-.308842 2.938979-.368618 2.938979-.747198V-6.485679C2.938979-6.575342 2.909091-6.645081 2.799502-6.645081C2.660025-6.645081 2.49066-6.455791 2.381071-6.37609C1.942715-6.087173 1.404732-6.007472 .896638-6.007472Z'/>
<path id='g0-82' d='M2.669988-3.128269H3.028643L4.523039-.816936C4.622665-.657534 4.861768-.268991 4.971357-.119552C5.041096 0 5.070984 0 5.300125 0H6.674969C6.854296 0 7.003736 0 7.003736-.179328C7.003736-.259029 6.94396-.328767 6.854296-.348692C6.485679-.428394 5.997509-1.085928 5.758406-1.404732C5.688667-1.504359 5.190535-2.161893 4.523039-3.237858C5.409714-3.39726 6.266501-3.775841 6.266501-4.961395C6.266501-6.346202 4.801993-6.824408 3.626401-6.824408H.498132C.318804-6.824408 .159402-6.824408 .159402-6.645081C.159402-6.475716 .348692-6.475716 .428394-6.475716C.996264-6.475716 1.046077-6.405978 1.046077-5.907846V-.916563C1.046077-.418431 .996264-.348692 .428394-.348692C.348692-.348692 .159402-.348692 .159402-.179328C.159402 0 .318804 0 .498132 0H3.227895C3.407223 0 3.556663 0 3.556663-.179328C3.556663-.348692 3.387298-.348692 3.277709-.348692C2.709838-.348692 2.669988-.428394 2.669988-.916563V-3.128269ZM4.592777-3.616438C4.871731-3.985056 4.901619-4.513076 4.901619-4.951432C4.901619-5.429639 4.841843-5.957659 4.523039-6.366127C4.931507-6.276463 5.917808-5.967621 5.917808-4.961395C5.917808-4.313823 5.618929-3.805729 4.592777-3.616438ZM2.669988-5.937733C2.669988-6.146949 2.669988-6.475716 3.287671-6.475716C4.134496-6.475716 4.552927-6.127024 4.552927-4.951432C4.552927-3.666252 4.244085-3.476961 2.669988-3.476961V-5.937733ZM1.315068-.348692C1.39477-.52802 1.39477-.806974 1.39477-.896638V-5.927771C1.39477-6.027397 1.39477-6.296389 1.315068-6.475716H2.450809C2.321295-6.316314 2.321295-6.117061 2.321295-5.967621V-.896638C2.321295-.797011 2.321295-.52802 2.400996-.348692H1.315068ZM3.437111-3.128269C3.506849-3.138232 3.5467-3.148194 3.626401-3.148194C3.775841-3.148194 3.995019-3.16812 4.144458-3.188045C4.293898-2.948941 5.369863-1.175592 6.196762-.348692H5.230386L3.437111-3.128269Z'/>
<path id='g2-50' d='M5.459527-2.291407C5.628892-2.291407 5.808219-2.291407 5.808219-2.49066S5.628892-2.689913 5.459527-2.689913H1.235367C1.354919-4.024907 2.500623-4.98132 3.905355-4.98132H5.459527C5.628892-4.98132 5.808219-4.98132 5.808219-5.180573S5.628892-5.379826 5.459527-5.379826H3.88543C2.181818-5.379826 .826899-4.084682 .826899-2.49066S2.181818 .398506 3.88543 .398506H5.459527C5.628892 .398506 5.808219 .398506 5.808219 .199253S5.628892 0 5.459527 0H3.905355C2.500623 0 1.354919-.956413 1.235367-2.291407H5.459527Z'/>
<path id='g4-75' d='M3.989041-2.803487C3.961146-2.859278 3.947198-2.880199 3.947198-2.887173C3.947198-2.901121 3.954172-2.908095 4.11457-3.019676L4.818929-3.514819C5.739477-4.163387 6.171856-4.470237 6.666999-4.51208C6.743711-4.519054 6.827397-4.526027 6.827397-4.665504C6.827397-4.721295 6.77858-4.756164 6.736737-4.756164C6.590286-4.756164 6.408966-4.735243 6.255542-4.735243C6.067248-4.735243 5.6-4.763138 5.411706-4.763138C5.369863-4.763138 5.265255-4.763138 5.265255-4.609714C5.265255-4.60274 5.265255-4.519054 5.369863-4.51208C5.453549-4.505106 5.544209-4.491158 5.544209-4.414446C5.544209-4.288917 5.32802-4.135492 5.23736-4.072727L2.329265-2.022416L2.880199-4.219178C2.942964-4.456289 2.949938-4.51208 3.493898-4.51208C3.605479-4.51208 3.703113-4.51208 3.703113-4.658531C3.703113-4.721295 3.66127-4.763138 3.591532-4.763138C3.38929-4.763138 2.880199-4.735243 2.677958-4.735243C2.559402-4.735243 2.315318-4.735243 2.196762-4.742217C2.057285-4.749191 1.889913-4.763138 1.75741-4.763138C1.715567-4.763138 1.610959-4.763138 1.610959-4.609714C1.610959-4.51208 1.687671-4.51208 1.841096-4.51208C1.952677-4.51208 1.980573-4.51208 2.106102-4.498132C2.245579-4.484184 2.259527-4.470237 2.259527-4.400498C2.259527-4.38655 2.259527-4.351681 2.231631-4.247073L1.30411-.54396C1.248319-.306849 1.234371-.251059 .690411-.251059C.564882-.251059 .481196-.251059 .481196-.097634C.481196-.09066 .481196 0 .592777 0C.795019 0 1.297136-.027895 1.499377-.027895C1.617933-.027895 1.862017-.027895 1.980573-.020922C2.12005-.013948 2.294396 0 2.426899 0C2.468742 0 2.57335 0 2.57335-.153425C2.57335-.251059 2.489664-.251059 2.350187-.251059C2.343213-.251059 2.21071-.251059 2.085181-.265006C1.924782-.278954 1.924782-.299875 1.924782-.369614C1.924782-.425405 1.994521-.683437 2.252553-1.708593L3.410212-2.524533L4.42142-.564882C4.470237-.474222 4.470237-.467248 4.470237-.432379C4.470237-.27198 4.274969-.251059 4.14944-.251059C4.065753-.251059 3.96812-.251059 3.96812-.097634C3.96812-.09066 3.975093 0 4.086675 0C4.281943 0 4.78406-.027895 4.979328-.027895C5.188543-.027895 5.467497 0 5.662765 0C5.753425 0 5.802242-.048817 5.802242-.146451C5.802242-.251059 5.711582-.251059 5.641843-.251059C5.516314-.251059 5.300125-.258032 5.181569-.481196L3.989041-2.803487Z'/>
<path id='g4-77' d='M7.120299-4.198257C7.183064-4.456289 7.197011-4.51208 7.713076-4.51208C7.859527-4.51208 7.950187-4.51208 7.950187-4.658531C7.950187-4.763138 7.866501-4.763138 7.740971-4.763138H6.792528C6.590286-4.763138 6.583313-4.756164 6.492653-4.623661L3.800747-.648568L3.110336-4.574844C3.075467-4.756164 3.075467-4.763138 2.866252-4.763138H1.868991C1.729514-4.763138 1.638854-4.763138 1.638854-4.609714C1.638854-4.51208 1.72254-4.51208 1.875965-4.51208C1.987547-4.51208 2.015442-4.51208 2.140971-4.498132C2.280448-4.484184 2.294396-4.470237 2.294396-4.400498C2.294396-4.393524 2.294396-4.351681 2.266501-4.247073L1.387796-.746202C1.325031-.509091 1.220423-.27198 .662516-.251059C.606725-.251059 .516065-.244085 .516065-.097634C.516065-.09066 .523039 0 .620672 0C.829888 0 1.12279-.027895 1.345953-.027895C1.513325-.027895 1.917808 0 2.085181 0C2.12005 0 2.224658 0 2.224658-.153425C2.224658-.244085 2.133998-.251059 2.071233-.251059C1.624907-.265006 1.624907-.446326 1.624907-.54396C1.624907-.571856 1.624907-.606725 1.652802-.718306L2.580324-4.428394H2.587298L3.333499-.188294C3.354421-.062765 3.368369 0 3.472976 0C3.57061 0 3.626401-.076712 3.675218-.153425L6.604234-4.498132L6.611208-4.491158L5.627895-.54396C5.572105-.306849 5.558157-.251059 5.014197-.251059C4.888667-.251059 4.804981-.251059 4.804981-.097634C4.804981-.09066 4.804981 0 4.916563 0C5.049066 0 5.209465-.020922 5.348941-.020922S5.648817-.027895 5.788294-.027895C5.983562-.027895 6.478705 0 6.673973 0C6.715816 0 6.820423 0 6.820423-.153425C6.820423-.251059 6.736737-.251059 6.59726-.251059C6.590286-.251059 6.457783-.251059 6.332254-.265006C6.171856-.278954 6.171856-.299875 6.171856-.369614C6.171856-.411457 6.192777-.481196 6.199751-.523039L7.120299-4.198257Z'/>
<path id='g4-78' d='M5.816189-4.002989C5.885928-4.267995 5.997509-4.498132 6.555417-4.51208C6.590286-4.51208 6.694894-4.519054 6.694894-4.665504C6.694894-4.707347 6.660025-4.763138 6.590286-4.763138C6.360149-4.763138 6.102117-4.735243 5.865006-4.735243C5.697634-4.735243 5.293151-4.763138 5.125778-4.763138C5.090909-4.763138 4.986301-4.763138 4.986301-4.609714C4.986301-4.519054 5.076961-4.51208 5.139726-4.51208C5.467497-4.505106 5.586052-4.400498 5.586052-4.226152C5.586052-4.170361 5.579078-4.135492 5.558157-4.05878L4.798007-1.018182L3.02665-4.644583C2.970859-4.763138 2.956912-4.763138 2.789539-4.763138H1.834122C1.701619-4.763138 1.610959-4.763138 1.610959-4.609714C1.610959-4.51208 1.694645-4.51208 1.841096-4.51208S2.140971-4.505106 2.287422-4.47721L1.352927-.746202C1.290162-.481196 1.171606-.27198 .627646-.251059C.578829-.251059 .481196-.244085 .481196-.104608C.481196-.027895 .536986 0 .585803 0C.81594 0 1.073973-.027895 1.311083-.027895C1.478456-.027895 1.882939 0 2.050311 0C2.12005 0 2.189788-.034869 2.189788-.146451C2.189788-.244085 2.106102-.251059 2.02939-.251059C1.590037-.265006 1.590037-.446326 1.590037-.54396C1.590037-.571856 1.590037-.606725 1.617933-.718306L2.510585-4.288917L4.546949-.118555C4.60274-.006974 4.630635 0 4.700374 0C4.811955 0 4.811955-.020922 4.846824-.146451L5.816189-4.002989Z'/>
<path id='g4-105' d='M2.259527-4.358655C2.259527-4.470237 2.175841-4.623661 1.980573-4.623661C1.792279-4.623661 1.590037-4.442341 1.590037-4.2401C1.590037-4.121544 1.680697-3.975093 1.868991-3.975093C2.071233-3.975093 2.259527-4.170361 2.259527-4.358655ZM.836862-.81594C.808966-.72528 .774097-.641594 .774097-.523039C.774097-.195268 1.053051 .069738 1.436613 .069738C2.133998 .069738 2.440847-.892653 2.440847-.99726C2.440847-1.08792 2.350187-1.08792 2.329265-1.08792C2.231631-1.08792 2.224658-1.046077 2.196762-.969365C2.036364-.411457 1.729514-.125529 1.457534-.125529C1.318057-.125529 1.283188-.216189 1.283188-.369614C1.283188-.530012 1.332005-.662516 1.39477-.81594C1.464508-1.004234 1.54122-1.192528 1.617933-1.373848C1.680697-1.54122 1.931756-2.175841 1.959651-2.259527C1.980573-2.329265 2.001494-2.412951 2.001494-2.48269C2.001494-2.810461 1.72254-3.075467 1.338979-3.075467C.648568-3.075467 .327771-2.127024 .327771-2.008468C.327771-1.917808 .425405-1.917808 .446326-1.917808C.54396-1.917808 .550934-1.952677 .571856-2.02939C.753176-2.629141 1.060025-2.880199 1.318057-2.880199C1.429639-2.880199 1.492403-2.824408 1.492403-2.636115C1.492403-2.475716 1.45056-2.371108 1.276214-1.93873L.836862-.81594Z'/>
<path id='g6-49' d='M2.336239-4.435367C2.336239-4.623661 2.322291-4.630635 2.127024-4.630635C1.680697-4.191283 1.046077-4.184309 .760149-4.184309V-3.93325C.927522-3.93325 1.387796-3.93325 1.771357-4.128518V-.571856C1.771357-.341719 1.771357-.251059 1.073973-.251059H.808966V0C.934496-.006974 1.792279-.027895 2.050311-.027895C2.266501-.027895 3.145205-.006974 3.29863 0V-.251059H3.033624C2.336239-.251059 2.336239-.341719 2.336239-.571856V-4.435367Z'/>
<path id='g6-61' d='M5.355915-2.343213C5.460523-2.343213 5.620922-2.343213 5.620922-2.517559C5.620922-2.684932 5.453549-2.684932 5.362889-2.684932H.746202C.655542-2.684932 .488169-2.684932 .488169-2.517559C.488169-2.343213 .648568-2.343213 .753176-2.343213H5.355915ZM5.362889-.808966C5.453549-.808966 5.620922-.808966 5.620922-.976339C5.620922-1.150685 5.460523-1.150685 5.355915-1.150685H.753176C.648568-1.150685 .488169-1.150685 .488169-.976339C.488169-.808966 .655542-.808966 .746202-.808966H5.362889Z'/>
<path id='g5-40' d='M3.297634 2.391034C3.297634 2.361146 3.297634 2.34122 3.128269 2.171856C1.882939 .916563 1.564134-.966376 1.564134-2.49066C1.564134-4.224159 1.942715-5.957659 3.16812-7.202989C3.297634-7.32254 3.297634-7.342466 3.297634-7.372354C3.297634-7.442092 3.257783-7.47198 3.198007-7.47198C3.098381-7.47198 2.201743-6.794521 1.613948-5.529265C1.105853-4.433375 .986301-3.327522 .986301-2.49066C.986301-1.713574 1.09589-.508095 1.643836 .617684C2.241594 1.843088 3.098381 2.49066 3.198007 2.49066C3.257783 2.49066 3.297634 2.460772 3.297634 2.391034Z'/>
<path id='g5-41' d='M2.879203-2.49066C2.879203-3.267746 2.769614-4.473225 2.221669-5.599004C1.62391-6.824408 .767123-7.47198 .667497-7.47198C.607721-7.47198 .56787-7.43213 .56787-7.372354C.56787-7.342466 .56787-7.32254 .757161-7.143213C1.733499-6.156912 2.30137-4.572852 2.30137-2.49066C2.30137-.787049 1.932752 .966376 .697385 2.221669C.56787 2.34122 .56787 2.361146 .56787 2.391034C.56787 2.450809 .607721 2.49066 .667497 2.49066C.767123 2.49066 1.663761 1.8132 2.251557 .547945C2.759651-.547945 2.879203-1.653798 2.879203-2.49066Z'/>
<path id='g5-61' d='M6.844334-3.257783C6.993773-3.257783 7.183064-3.257783 7.183064-3.457036S6.993773-3.656289 6.854296-3.656289H.886675C.747198-3.656289 .557908-3.656289 .557908-3.457036S.747198-3.257783 .896638-3.257783H6.844334ZM6.854296-1.325031C6.993773-1.325031 7.183064-1.325031 7.183064-1.524284S6.993773-1.723537 6.844334-1.723537H.896638C.747198-1.723537 .557908-1.723537 .557908-1.524284S.747198-1.325031 .886675-1.325031H6.854296Z'/>
<path id='g3-59' d='M2.022416-.009963C2.022416-.667497 1.77335-1.05604 1.384807-1.05604C1.05604-1.05604 .856787-.806974 .856787-.52802C.856787-.259029 1.05604 0 1.384807 0C1.504359 0 1.633873-.039851 1.733499-.129514C1.763387-.14944 1.77335-.159402 1.783313-.159402S1.803238-.14944 1.803238-.009963C1.803238 .727273 1.454545 1.325031 1.125778 1.653798C1.016189 1.763387 1.016189 1.783313 1.016189 1.8132C1.016189 1.882939 1.066002 1.92279 1.115816 1.92279C1.225405 1.92279 2.022416 1.155666 2.022416-.009963Z'/>
<path id='g3-67' d='M7.571606-6.924035C7.571606-6.953923 7.551681-7.023661 7.462017-7.023661C7.43213-7.023661 7.422167-7.013699 7.312578-6.90411L6.615193-6.136986C6.525529-6.276463 6.067248-7.023661 4.961395-7.023661C2.739726-7.023661 .498132-4.821918 .498132-2.510585C.498132-.86675 1.673724 .219178 3.198007 .219178C4.064757 .219178 4.821918-.179328 5.349938-.637609C6.276463-1.454545 6.445828-2.361146 6.445828-2.391034C6.445828-2.49066 6.346202-2.49066 6.326276-2.49066C6.266501-2.49066 6.216687-2.470735 6.196762-2.391034C6.107098-2.102117 5.877958-1.39477 5.190535-.816936C4.503113-.259029 3.875467-.089664 3.35741-.089664C2.460772-.089664 1.404732-.607721 1.404732-2.161893C1.404732-2.729763 1.613948-4.343711 2.610212-5.50934C3.217933-6.216687 4.154421-6.714819 5.041096-6.714819C6.057285-6.714819 6.645081-5.947696 6.645081-4.79203C6.645081-4.393524 6.615193-4.383562 6.615193-4.283935S6.724782-4.184309 6.764633-4.184309C6.894147-4.184309 6.894147-4.204234 6.94396-4.383562L7.571606-6.924035Z'/>
<path id='g3-68' d='M1.58406-.777086C1.484433-.388543 1.464508-.308842 .67746-.308842C.508095-.308842 .398506-.308842 .398506-.119552C.398506 0 .488169 0 .67746 0H3.975093C6.047323 0 8.009963-2.102117 8.009963-4.283935C8.009963-5.688667 7.163138-6.804483 5.668742-6.804483H2.321295C2.132005-6.804483 2.022416-6.804483 2.022416-6.615193C2.022416-6.495641 2.11208-6.495641 2.311333-6.495641C2.440847-6.495641 2.620174-6.485679 2.739726-6.475716C2.899128-6.455791 2.958904-6.425903 2.958904-6.316314C2.958904-6.276463 2.948941-6.246575 2.919054-6.127024L1.58406-.777086ZM3.73599-6.117061C3.825654-6.465753 3.845579-6.495641 4.273973-6.495641H5.339975C6.316314-6.495641 7.143213-5.967621 7.143213-4.652553C7.143213-4.164384 6.94396-2.530511 6.097136-1.43462C5.808219-1.066002 5.021171-.308842 3.795766-.308842H2.669988C2.530511-.308842 2.510585-.308842 2.450809-.318804C2.351183-.328767 2.321295-.33873 2.321295-.418431C2.321295-.448319 2.321295-.468244 2.371108-.647572L3.73599-6.117061Z'/>
<path id='g3-116' d='M2.052304-3.985056H2.988792C3.188045-3.985056 3.287671-3.985056 3.287671-4.184309C3.287671-4.293898 3.188045-4.293898 3.008717-4.293898H2.132005C2.49066-5.708593 2.540473-5.907846 2.540473-5.967621C2.540473-6.136986 2.420922-6.236613 2.251557-6.236613C2.221669-6.236613 1.942715-6.22665 1.853051-5.877958L1.464508-4.293898H.52802C.328767-4.293898 .229141-4.293898 .229141-4.104608C.229141-3.985056 .308842-3.985056 .508095-3.985056H1.384807C.667497-1.155666 .627646-.986301 .627646-.806974C.627646-.268991 1.006227 .109589 1.544209 .109589C2.560399 .109589 3.128269-1.344956 3.128269-1.424658C3.128269-1.524284 3.048568-1.524284 3.008717-1.524284C2.919054-1.524284 2.909091-1.494396 2.859278-1.384807C2.430884-.348692 1.902864-.109589 1.564134-.109589C1.354919-.109589 1.255293-.239103 1.255293-.56787C1.255293-.806974 1.275218-.876712 1.315068-1.046077L2.052304-3.985056Z'/>
<path id='g3-120' d='M3.327522-3.008717C3.387298-3.267746 3.616438-4.184309 4.313823-4.184309C4.363636-4.184309 4.60274-4.184309 4.811955-4.054795C4.533001-4.004981 4.333748-3.755915 4.333748-3.516812C4.333748-3.35741 4.443337-3.16812 4.712329-3.16812C4.931507-3.16812 5.250311-3.347447 5.250311-3.745953C5.250311-4.26401 4.662516-4.403487 4.323786-4.403487C3.745953-4.403487 3.39726-3.875467 3.277709-3.646326C3.028643-4.303861 2.49066-4.403487 2.201743-4.403487C1.165629-4.403487 .597758-3.118306 .597758-2.86924C.597758-2.769614 .697385-2.769614 .71731-2.769614C.797011-2.769614 .826899-2.789539 .846824-2.879203C1.185554-3.935243 1.843088-4.184309 2.181818-4.184309C2.371108-4.184309 2.719801-4.094645 2.719801-3.516812C2.719801-3.20797 2.550436-2.540473 2.181818-1.145704C2.022416-.52802 1.673724-.109589 1.235367-.109589C1.175592-.109589 .946451-.109589 .737235-.239103C.986301-.288917 1.205479-.498132 1.205479-.777086C1.205479-1.046077 .986301-1.125778 .836862-1.125778C.537983-1.125778 .288917-.86675 .288917-.547945C.288917-.089664 .787049 .109589 1.225405 .109589C1.882939 .109589 2.241594-.587796 2.271482-.647572C2.391034-.278954 2.749689 .109589 3.347447 .109589C4.373599 .109589 4.941469-1.175592 4.941469-1.424658C4.941469-1.524284 4.851806-1.524284 4.821918-1.524284C4.732254-1.524284 4.712329-1.484433 4.692403-1.414695C4.363636-.348692 3.686177-.109589 3.367372-.109589C2.978829-.109589 2.819427-.428394 2.819427-.767123C2.819427-.986301 2.879203-1.205479 2.988792-1.643836L3.327522-3.008717Z'/>
</defs>
<g id='page1' transform='matrix(2.331429 0 0 2.331429 0 0)'>
<rect x='173.467934' y='19.524956' width='324.012568' height='12.763264' fill='#242424'/>
<g fill='#f6f3e8'>
<use x='173.467934' y='29.299444' xlink:href='#g3-68'/>
<use x='184.760255' y='29.299444' xlink:href='#g5-61'/>
<use x='195.276335' y='29.299444' xlink:href='#g5-40'/>
<use x='199.150709' y='29.299444' xlink:href='#g3-120'/>
<use x='204.844641' y='30.793825' xlink:href='#g4-105'/>
<use x='208.161487' y='29.299444' xlink:href='#g3-59'/>
<use x='212.589295' y='29.299444' xlink:href='#g3-116'/>
<use x='216.18693' y='30.793825' xlink:href='#g4-105'/>
<use x='219.503777' y='29.299444' xlink:href='#g5-41'/>
<use x='223.378122' y='24.290426' xlink:href='#g4-78'/>
<use x='223.378122' y='32.288221' xlink:href='#g4-105'/>
<use x='226.196849' y='32.288221' xlink:href='#g6-61'/>
<use x='232.312833' y='32.288221' xlink:href='#g6-49'/>
<use x='239.54952' y='29.299444' xlink:href='#g2-50'/>
<use x='248.958634' y='29.299444' xlink:href='#g0-82'/>
<use x='256.153894' y='25.185948' xlink:href='#g4-77'/>
<use x='264.997136' y='29.299444' xlink:href='#g3-120'/>
<use x='270.691068' y='29.299444' xlink:href='#g3-67'/>
<use x='277.811583' y='30.793825' xlink:href='#g4-105'/>
<use x='281.128429' y='24.954623' xlink:href='#g4-75'/>
<use x='281.128429' y='31.762376' xlink:href='#g4-105'/>
<use x='283.947156' y='31.762376' xlink:href='#g6-61'/>
<use x='290.06314' y='31.762376' xlink:href='#g6-49'/>
<use x='484.75357' y='29.299444' xlink:href='#g1-40'/>
<use x='488.626984' y='29.299444' xlink:href='#g1-49'/>
<use x='493.607088' y='29.299444' xlink:href='#g1-41'/>
</g>
</g>
</svg>