<?xml version='1.0' encoding='UTF-8'?>
<!-- This file was generated by dvisvgm 2.8.1 -->
<svg version='1.1' xmlns='http://www.w3.org/2000/svg' xmlns:xlink='http://www.w3.org/1999/xlink' width='224.444616pt' height='23.227184pt' viewBox='-33.890048 23.016553 224.444616 23.227184'>
<defs>
<path id='g2-107' d='M2.182814-4.630635C2.189788-4.644583 2.21071-4.735243 2.21071-4.742217C2.21071-4.777086 2.182814-4.839851 2.099128-4.839851C1.959651-4.839851 1.380822-4.78406 1.206476-4.770112C1.150685-4.763138 1.053051-4.756164 1.053051-4.609714C1.053051-4.51208 1.150685-4.51208 1.234371-4.51208C1.569116-4.51208 1.569116-4.463263 1.569116-4.407472C1.569116-4.358655 1.555168-4.316812 1.54122-4.254047L.557908-.306849C.523039-.18132 .523039-.167372 .523039-.153425C.523039-.048817 .606725 .069738 .760149 .069738C.948443 .069738 1.039103-.069738 1.080946-.223163C1.094894-.251059 1.39477-1.478456 1.422665-1.57609C1.917808-1.527273 2.315318-1.366874 2.315318-1.004234C2.315318-.969365 2.315318-.934496 2.30137-.864757C2.273474-.760149 2.273474-.72528 2.273474-.648568C2.273474-.153425 2.677958 .069738 3.012702 .069738C3.689166 .069738 3.898381-.990286 3.898381-.99726C3.898381-1.08792 3.807721-1.08792 3.7868-1.08792C3.689166-1.08792 3.682192-1.053051 3.647323-.920548C3.563636-.620672 3.375342-.125529 3.033624-.125529C2.84533-.125529 2.789539-.299875 2.789539-.488169C2.789539-.606725 2.789539-.620672 2.831382-.801993C2.838356-.822914 2.866252-.941469 2.866252-1.018182C2.866252-1.638854 2.02939-1.736488 1.736488-1.75741C1.93873-1.882939 2.196762-2.113076 2.315318-2.217684C2.670984-2.552428 3.019676-2.880199 3.410212-2.880199C3.493898-2.880199 3.584558-2.859278 3.640349-2.789539C3.340473-2.740722 3.277709-2.503611 3.277709-2.399004C3.277709-2.245579 3.396264-2.140971 3.556663-2.140971C3.744956-2.140971 3.954172-2.294396 3.954172-2.587298C3.954172-2.817435 3.7868-3.075467 3.417186-3.075467C3.019676-3.075467 2.657036-2.789539 2.30137-2.461768C2.008468-2.182814 1.778331-1.966625 1.492403-1.84807L2.182814-4.630635Z'/>
<path id='g0-78' d='M3.048568-5.718555C3.227895-5.200498 3.447073-4.4533 3.895392-3.227895C4.523039-1.534247 4.801993-.916563 5.409714 .029888C5.549191 .239103 5.559153 .249066 5.648817 .249066C5.788294 .249066 5.997509 .129514 6.107098 .049813C6.246575-.079701 6.256538-.089664 6.366127-.577833C6.963885-3.198007 7.721046-5.927771 7.920299-6.386052C7.930262-6.405978 8.129514-6.784558 9.354919-6.804483C9.554172-6.814446 9.743462-7.342466 9.743462-7.561644C9.743462-7.721046 9.683686-7.721046 9.544209-7.721046C8.547945-7.721046 8.099626-7.302615 7.980075-7.173101C7.701121-6.814446 7.462017-6.087173 7.003736-4.423412C6.655044-3.148194 6.336239-1.853051 6.027397-.56787C5.479452-1.39477 5.17061-2.181818 4.692403-3.466999C4.164384-4.881694 3.845579-5.917808 3.576588-6.814446C3.516812-7.013699 3.506849-7.023661 3.417186-7.023661C3.39726-7.023661 3.198007-7.023661 2.909091-6.784558C2.809465-6.694894 2.799502-6.60523 2.789539-6.495641C2.510585-3.845579 1.574097-1.225405 1.305106-.747198C1.225405-.597758 1.105853-.418431 .9066-.418431C.806974-.418431 .418431-.468244 .159402-.707347C.109589-.747198 .089664-.747198 .079701-.747198C-.079701-.747198-.288917-.249066-.288917-.009963C-.288917 .298879 .318804 .498132 .597758 .498132C1.235367 .498132 1.743462-.9066 1.902864-1.364882C2.550436-3.16812 2.859278-4.652553 3.048568-5.718555Z'/>
<path id='g0-106' d='M1.58406-7.113325C1.58406-7.292653 1.58406-7.47198 1.384807-7.47198S1.185554-7.292653 1.185554-7.113325V2.132005C1.185554 2.311333 1.185554 2.49066 1.384807 2.49066S1.58406 2.311333 1.58406 2.132005V-7.113325Z'/>
<path id='g3-6' d='M3.706102-3.247821C3.795766-3.347447 3.795766-3.387298 3.795766-3.407223C3.795766-3.457036 3.755915-3.506849 3.726027-3.5467L1.683686-6.495641H3.985056C5.668742-6.495641 6.166874-6.136986 6.37609-4.562889H6.625156L6.346202-6.804483H.816936C.577833-6.804483 .557908-6.804483 .557908-6.575342L3.038605-2.968867L.667497-.268991C.56787-.159402 .56787-.139477 .56787-.109589C.56787 0 .667497 0 .816936 0H6.346202L6.625156-2.351183H6.37609C6.196762-.687422 5.519303-.418431 3.955168-.418431H1.205479L3.706102-3.247821Z'/>
<path id='g3-40' d='M3.297634 2.391034C3.297634 2.361146 3.297634 2.34122 3.128269 2.171856C1.882939 .916563 1.564134-.966376 1.564134-2.49066C1.564134-4.224159 1.942715-5.957659 3.16812-7.202989C3.297634-7.32254 3.297634-7.342466 3.297634-7.372354C3.297634-7.442092 3.257783-7.47198 3.198007-7.47198C3.098381-7.47198 2.201743-6.794521 1.613948-5.529265C1.105853-4.433375 .986301-3.327522 .986301-2.49066C.986301-1.713574 1.09589-.508095 1.643836 .617684C2.241594 1.843088 3.098381 2.49066 3.198007 2.49066C3.257783 2.49066 3.297634 2.460772 3.297634 2.391034Z'/>
<path id='g3-41' d='M2.879203-2.49066C2.879203-3.267746 2.769614-4.473225 2.221669-5.599004C1.62391-6.824408 .767123-7.47198 .667497-7.47198C.607721-7.47198 .56787-7.43213 .56787-7.372354C.56787-7.342466 .56787-7.32254 .757161-7.143213C1.733499-6.156912 2.30137-4.572852 2.30137-2.49066C2.30137-.787049 1.932752 .966376 .697385 2.221669C.56787 2.34122 .56787 2.361146 .56787 2.391034C.56787 2.450809 .607721 2.49066 .667497 2.49066C.767123 2.49066 1.663761 1.8132 2.251557 .547945C2.759651-.547945 2.879203-1.653798 2.879203-2.49066Z'/>
<path id='g3-61' d='M6.844334-3.257783C6.993773-3.257783 7.183064-3.257783 7.183064-3.457036S6.993773-3.656289 6.854296-3.656289H.886675C.747198-3.656289 .557908-3.656289 .557908-3.457036S.747198-3.257783 .896638-3.257783H6.844334ZM6.854296-1.325031C6.993773-1.325031 7.183064-1.325031 7.183064-1.524284S6.993773-1.723537 6.844334-1.723537H.896638C.747198-1.723537 .557908-1.723537 .557908-1.524284S.747198-1.325031 .886675-1.325031H6.854296Z'/>
<path id='g1-59' d='M2.022416-.009963C2.022416-.667497 1.77335-1.05604 1.384807-1.05604C1.05604-1.05604 .856787-.806974 .856787-.52802C.856787-.259029 1.05604 0 1.384807 0C1.504359 0 1.633873-.039851 1.733499-.129514C1.763387-.14944 1.77335-.159402 1.783313-.159402S1.803238-.14944 1.803238-.009963C1.803238 .727273 1.454545 1.325031 1.125778 1.653798C1.016189 1.763387 1.016189 1.783313 1.016189 1.8132C1.016189 1.882939 1.066002 1.92279 1.115816 1.92279C1.225405 1.92279 2.022416 1.155666 2.022416-.009963Z'/>
<path id='g1-67' d='M7.571606-6.924035C7.571606-6.953923 7.551681-7.023661 7.462017-7.023661C7.43213-7.023661 7.422167-7.013699 7.312578-6.90411L6.615193-6.136986C6.525529-6.276463 6.067248-7.023661 4.961395-7.023661C2.739726-7.023661 .498132-4.821918 .498132-2.510585C.498132-.86675 1.673724 .219178 3.198007 .219178C4.064757 .219178 4.821918-.179328 5.349938-.637609C6.276463-1.454545 6.445828-2.361146 6.445828-2.391034C6.445828-2.49066 6.346202-2.49066 6.326276-2.49066C6.266501-2.49066 6.216687-2.470735 6.196762-2.391034C6.107098-2.102117 5.877958-1.39477 5.190535-.816936C4.503113-.259029 3.875467-.089664 3.35741-.089664C2.460772-.089664 1.404732-.607721 1.404732-2.161893C1.404732-2.729763 1.613948-4.343711 2.610212-5.50934C3.217933-6.216687 4.154421-6.714819 5.041096-6.714819C6.057285-6.714819 6.645081-5.947696 6.645081-4.79203C6.645081-4.393524 6.615193-4.383562 6.615193-4.283935S6.724782-4.184309 6.764633-4.184309C6.894147-4.184309 6.894147-4.204234 6.94396-4.383562L7.571606-6.924035Z'/>
<path id='g1-112' d='M.448319 1.215442C.368618 1.554172 .348692 1.62391-.089664 1.62391C-.209215 1.62391-.318804 1.62391-.318804 1.8132C-.318804 1.892902-.268991 1.932752-.18929 1.932752C.079701 1.932752 .368618 1.902864 .647572 1.902864C.976339 1.902864 1.315068 1.932752 1.633873 1.932752C1.683686 1.932752 1.8132 1.932752 1.8132 1.733499C1.8132 1.62391 1.713574 1.62391 1.574097 1.62391C1.075965 1.62391 1.075965 1.554172 1.075965 1.464508C1.075965 1.344956 1.494396-.278954 1.564134-.52802C1.693649-.239103 1.972603 .109589 2.480697 .109589C3.636364 .109589 4.881694-1.344956 4.881694-2.809465C4.881694-3.745953 4.313823-4.403487 3.556663-4.403487C3.058531-4.403487 2.580324-4.044832 2.251557-3.656289C2.15193-4.194271 1.723537-4.403487 1.354919-4.403487C.896638-4.403487 .707347-4.014944 .617684-3.835616C.438356-3.496887 .308842-2.899128 .308842-2.86924C.308842-2.769614 .408468-2.769614 .428394-2.769614C.52802-2.769614 .537983-2.779577 .597758-2.998755C.767123-3.706102 .966376-4.184309 1.325031-4.184309C1.494396-4.184309 1.633873-4.104608 1.633873-3.726027C1.633873-3.496887 1.603985-3.387298 1.564134-3.217933L.448319 1.215442ZM2.201743-3.108344C2.271482-3.377335 2.540473-3.656289 2.719801-3.805729C3.068493-4.11457 3.35741-4.184309 3.526775-4.184309C3.92528-4.184309 4.164384-3.835616 4.164384-3.247821S3.835616-1.514321 3.656289-1.135741C3.317559-.438356 2.839352-.109589 2.470735-.109589C1.8132-.109589 1.683686-.936488 1.683686-.996264C1.683686-1.016189 1.683686-1.036115 1.713574-1.155666L2.201743-3.108344Z'/>
<path id='g1-117' d='M3.486924-.557908C3.596513-.14944 3.945205 .109589 4.373599 .109589C4.722291 .109589 4.951432-.119552 5.110834-.438356C5.280199-.797011 5.409714-1.404732 5.409714-1.424658C5.409714-1.524284 5.32005-1.524284 5.290162-1.524284C5.190535-1.524284 5.180573-1.484433 5.150685-1.344956C5.011208-.787049 4.821918-.109589 4.403487-.109589C4.194271-.109589 4.094645-.239103 4.094645-.56787C4.094645-.787049 4.214197-1.255293 4.293898-1.603985L4.572852-2.67995C4.60274-2.82939 4.702366-3.20797 4.742217-3.35741C4.79203-3.58655 4.891656-3.965131 4.891656-4.024907C4.891656-4.204234 4.752179-4.293898 4.60274-4.293898C4.552927-4.293898 4.293898-4.283935 4.214197-3.945205C4.024907-3.217933 3.58655-1.474471 3.466999-.946451C3.457036-.9066 3.058531-.109589 2.331258-.109589C1.8132-.109589 1.713574-.557908 1.713574-.926526C1.713574-1.484433 1.992528-2.271482 2.251557-2.958904C2.371108-3.257783 2.420922-3.39726 2.420922-3.58655C2.420922-4.034869 2.102117-4.403487 1.603985-4.403487C.657534-4.403487 .288917-2.958904 .288917-2.86924C.288917-2.769614 .388543-2.769614 .408468-2.769614C.508095-2.769614 .518057-2.789539 .56787-2.948941C.816936-3.815691 1.195517-4.184309 1.574097-4.184309C1.663761-4.184309 1.823163-4.174346 1.823163-3.855542C1.823163-3.616438 1.713574-3.327522 1.653798-3.178082C1.285181-2.191781 1.075965-1.574097 1.075965-1.085928C1.075965-.139477 1.763387 .109589 2.30137 .109589C2.958904 .109589 3.317559-.33873 3.486924-.557908Z'/>
<path id='g1-120' d='M3.327522-3.008717C3.387298-3.267746 3.616438-4.184309 4.313823-4.184309C4.363636-4.184309 4.60274-4.184309 4.811955-4.054795C4.533001-4.004981 4.333748-3.755915 4.333748-3.516812C4.333748-3.35741 4.443337-3.16812 4.712329-3.16812C4.931507-3.16812 5.250311-3.347447 5.250311-3.745953C5.250311-4.26401 4.662516-4.403487 4.323786-4.403487C3.745953-4.403487 3.39726-3.875467 3.277709-3.646326C3.028643-4.303861 2.49066-4.403487 2.201743-4.403487C1.165629-4.403487 .597758-3.118306 .597758-2.86924C.597758-2.769614 .697385-2.769614 .71731-2.769614C.797011-2.769614 .826899-2.789539 .846824-2.879203C1.185554-3.935243 1.843088-4.184309 2.181818-4.184309C2.371108-4.184309 2.719801-4.094645 2.719801-3.516812C2.719801-3.20797 2.550436-2.540473 2.181818-1.145704C2.022416-.52802 1.673724-.109589 1.235367-.109589C1.175592-.109589 .946451-.109589 .737235-.239103C.986301-.288917 1.205479-.498132 1.205479-.777086C1.205479-1.046077 .986301-1.125778 .836862-1.125778C.537983-1.125778 .288917-.86675 .288917-.547945C.288917-.089664 .787049 .109589 1.225405 .109589C1.882939 .109589 2.241594-.587796 2.271482-.647572C2.391034-.278954 2.749689 .109589 3.347447 .109589C4.373599 .109589 4.941469-1.175592 4.941469-1.424658C4.941469-1.524284 4.851806-1.524284 4.821918-1.524284C4.732254-1.524284 4.712329-1.484433 4.692403-1.414695C4.363636-.348692 3.686177-.109589 3.367372-.109589C2.978829-.109589 2.819427-.428394 2.819427-.767123C2.819427-.986301 2.879203-1.205479 2.988792-1.643836L3.327522-3.008717Z'/>
</defs>
<g id='page1' transform='matrix(2.331429 0 0 2.331429 0 0)'>
<rect x='-14.536172' y='9.872296' width='96.269137' height='9.96264' fill='#242424'/>
<g fill='#f6f3e8'>
<use x='-14.536172' y='17.344276' xlink:href='#g1-112'/>
<use x='-9.523708' y='17.344276' xlink:href='#g3-40'/>
<use x='-5.649334' y='17.344276' xlink:href='#g1-120'/>
<use x='.044598' y='17.344276' xlink:href='#g0-106'/>
<use x='2.812007' y='17.344276' xlink:href='#g1-67'/>
<use x='9.932522' y='18.838657' xlink:href='#g2-107'/>
<use x='14.834306' y='17.344276' xlink:href='#g3-41'/>
<use x='21.476012' y='17.344276' xlink:href='#g3-61'/>
<use x='31.992092' y='17.344276' xlink:href='#g0-78'/>
<use x='41.634429' y='17.344276' xlink:href='#g3-40'/>
<use x='45.508803' y='17.344276' xlink:href='#g1-120'/>
<use x='51.202735' y='17.344276' xlink:href='#g1-59'/>
<use x='55.630543' y='17.344276' xlink:href='#g1-117'/>
<use x='61.333738' y='18.838657' xlink:href='#g2-107'/>
<use x='66.235523' y='17.344276' xlink:href='#g1-59'/>
<use x='70.663331' y='17.344276' xlink:href='#g3-6'/>
<use x='77.858591' y='17.344276' xlink:href='#g3-41'/>
</g>
</g>
</svg>