<?xml version='1.0' encoding='UTF-8'?>
<!-- This file was generated by dvisvgm 2.8.1 -->
<svg version='1.1' xmlns='http://www.w3.org/2000/svg' xmlns:xlink='http://www.w3.org/1999/xlink' width='92.733905pt' height='55.745808pt' viewBox='499.187784 42.759632 92.733905 55.745808'>
<defs>
<path id='g2-18' d='M6.973848 23.402242C6.973848 23.362391 6.953923 23.342466 6.933998 23.312578C6.56538 22.94396 5.897883 22.276463 5.230386 21.200498C3.626401 18.630137 2.899128 15.392279 2.899128 11.556663C2.899128 8.876712 3.257783 5.419676 4.901619 2.450809C5.688667 1.036115 6.505604 .219178 6.94396-.219178C6.973848-.249066 6.973848-.268991 6.973848-.298879C6.973848-.398506 6.90411-.398506 6.764633-.398506S6.60523-.398506 6.455791-.249066C3.118306 2.789539 2.072229 7.352428 2.072229 11.5467C2.072229 15.462017 2.968867 19.407223 5.499377 22.386052C5.69863 22.615193 6.07721 23.023661 6.485679 23.382316C6.60523 23.501868 6.625156 23.501868 6.764633 23.501868S6.973848 23.501868 6.973848 23.402242Z'/>
<path id='g2-19' d='M5.250311 11.556663C5.250311 7.641345 4.353674 3.696139 1.823163 .71731C1.62391 .488169 1.24533 .079701 .836862-.278954C.71731-.398506 .697385-.398506 .557908-.398506C.438356-.398506 .348692-.398506 .348692-.298879C.348692-.259029 .388543-.219178 .408468-.199253C.757161 .159402 1.424658 .826899 2.092154 1.902864C3.696139 4.473225 4.423412 7.711083 4.423412 11.5467C4.423412 14.22665 4.064757 17.683686 2.420922 20.652553C1.633873 22.067248 .806974 22.894147 .388543 23.312578C.368618 23.342466 .348692 23.372354 .348692 23.402242C.348692 23.501868 .438356 23.501868 .557908 23.501868C.697385 23.501868 .71731 23.501868 .86675 23.352428C4.204234 20.313823 5.250311 15.750934 5.250311 11.556663Z'/>
<path id='g1-61' d='M6.844334-3.257783C6.993773-3.257783 7.183064-3.257783 7.183064-3.457036S6.993773-3.656289 6.854296-3.656289H.886675C.747198-3.656289 .557908-3.656289 .557908-3.457036S.747198-3.257783 .896638-3.257783H6.844334ZM6.854296-1.325031C6.993773-1.325031 7.183064-1.325031 7.183064-1.524284S6.993773-1.723537 6.844334-1.723537H.896638C.747198-1.723537 .557908-1.723537 .557908-1.524284S.747198-1.325031 .886675-1.325031H6.854296Z'/>
<path id='g0-33' d='M6.027397-3.706102C6.027397-4.154421 5.84807-4.403487 5.628892-4.403487C5.369863-4.403487 5.100872-4.164384 5.100872-3.935243C5.100872-3.835616 5.150685-3.726027 5.250311-3.636364C5.419676-3.486924 5.599004-3.217933 5.599004-2.799502C5.599004-2.400996 5.409714-1.833126 5.100872-1.374844C4.801993-.946451 4.433375-.607721 3.965131-.607721C3.39726-.607721 3.088418-.966376 2.998755-1.504359C3.108344-1.763387 3.337484-2.400996 3.337484-2.67995C3.337484-2.799502 3.287671-2.899128 3.158157-2.899128C3.078456-2.899128 2.968867-2.879203 2.889166-2.729763C2.779577-2.530511 2.660025-1.882939 2.660025-1.524284C2.331258-1.05604 1.932752-.607721 1.305106-.607721C.647572-.607721 .438356-1.195517 .438356-1.753425C.438356-2.998755 1.454545-4.044832 1.454545-4.174346C1.454545-4.283935 1.374844-4.363636 1.265255-4.363636C1.135741-4.363636 1.066002-4.234122 1.006227-4.144458C.498132-3.407223 .119552-2.221669 .119552-1.315068C.119552-.627646 .348692 .109589 1.165629 .109589C1.872976 .109589 2.34122-.388543 2.699875-.936488C2.789539-.358655 3.178082 .109589 3.795766 .109589C4.572852 .109589 5.051059-.498132 5.409714-1.24533C5.648817-1.733499 6.027397-3.088418 6.027397-3.706102Z'/>
<path id='g0-97' d='M3.716065-3.765878C3.536737-4.134496 3.247821-4.403487 2.799502-4.403487C1.633873-4.403487 .398506-2.938979 .398506-1.484433C.398506-.547945 .946451 .109589 1.723537 .109589C1.92279 .109589 2.420922 .069738 3.01868-.637609C3.098381-.219178 3.447073 .109589 3.92528 .109589C4.273973 .109589 4.503113-.119552 4.662516-.438356C4.83188-.797011 4.961395-1.404732 4.961395-1.424658C4.961395-1.524284 4.871731-1.524284 4.841843-1.524284C4.742217-1.524284 4.732254-1.484433 4.702366-1.344956C4.533001-.697385 4.353674-.109589 3.945205-.109589C3.676214-.109589 3.646326-.368618 3.646326-.56787C3.646326-.787049 3.666252-.86675 3.775841-1.305106C3.88543-1.723537 3.905355-1.823163 3.995019-2.201743L4.353674-3.596513C4.423412-3.875467 4.423412-3.895392 4.423412-3.935243C4.423412-4.104608 4.303861-4.204234 4.134496-4.204234C3.895392-4.204234 3.745953-3.985056 3.716065-3.765878ZM3.068493-1.185554C3.01868-1.006227 3.01868-.986301 2.86924-.816936C2.430884-.268991 2.022416-.109589 1.743462-.109589C1.24533-.109589 1.105853-.657534 1.105853-1.046077C1.105853-1.544209 1.424658-2.769614 1.653798-3.227895C1.96264-3.815691 2.410959-4.184309 2.809465-4.184309C3.457036-4.184309 3.596513-3.367372 3.596513-3.307597S3.576588-3.188045 3.566625-3.138232L3.068493-1.185554Z'/>
<path id='g0-98' d='M2.381071-6.804483C2.381071-6.814446 2.381071-6.914072 2.251557-6.914072C2.022416-6.914072 1.295143-6.834371 1.036115-6.814446C.956413-6.804483 .846824-6.794521 .846824-6.615193C.846824-6.495641 .936488-6.495641 1.085928-6.495641C1.564134-6.495641 1.58406-6.425903 1.58406-6.326276C1.58406-6.256538 1.494396-5.917808 1.444583-5.708593L.627646-2.460772C.508095-1.96264 .468244-1.803238 .468244-1.454545C.468244-.508095 .996264 .109589 1.733499 .109589C2.909091 .109589 4.134496-1.374844 4.134496-2.809465C4.134496-3.716065 3.606476-4.403487 2.809465-4.403487C2.351183-4.403487 1.942715-4.11457 1.643836-3.805729L2.381071-6.804483ZM1.444583-3.038605C1.504359-3.257783 1.504359-3.277709 1.594022-3.387298C2.082192-4.034869 2.530511-4.184309 2.789539-4.184309C3.148194-4.184309 3.417186-3.88543 3.417186-3.247821C3.417186-2.660025 3.088418-1.514321 2.909091-1.135741C2.580324-.468244 2.122042-.109589 1.733499-.109589C1.39477-.109589 1.066002-.37858 1.066002-1.115816C1.066002-1.305106 1.066002-1.494396 1.225405-2.122042L1.444583-3.038605Z'/>
</defs>
<g id='page1' transform='matrix(2.331429 0 0 2.331429 0 0)'>
<rect x='214.112407' y='18.340529' width='39.775572' height='23.910579' fill='#242424'/>
<g fill='#f6f3e8'>
<use x='214.112407' y='32.786475' xlink:href='#g0-33'/>
<use x='223.438471' y='32.786475' xlink:href='#g1-61'/>
<use x='233.954551' y='18.739024' xlink:href='#g2-18'/>
<use x='242.278713' y='38.764059' xlink:href='#g0-98'/>
<use x='241.288195' y='26.80889' xlink:href='#g0-97'/>
<use x='246.554336' y='18.739024' xlink:href='#g2-19'/>
</g>
</g>
</svg>