<?xml version='1.0' encoding='UTF-8'?>
<!-- This file was generated by dvisvgm 2.8.1 -->
<svg version='1.1' xmlns='http://www.w3.org/2000/svg' xmlns:xlink='http://www.w3.org/1999/xlink' width='732.342302pt' height='28.066213pt' viewBox='427.497955 46.050144 732.342302 28.066213'>
<defs>
<path id='g0-40' d='M3.158157-7.47198C3.01868-7.422167 2.839352-7.222914 2.719801-7.103362C1.494396-5.877958 .996264-4.184309 .996264-2.500623C.996264-.697385 1.58406 1.225405 3.048568 2.400996C3.098381 2.430884 3.158157 2.480697 3.217933 2.480697S3.307597 2.420922 3.307597 2.381071C3.307597 2.271482 3.038605 2.062267 2.929016 1.932752C1.902864 .707347 1.58406-.926526 1.58406-2.49066C1.58406-4.134496 1.912827-5.937733 3.148194-7.173101C3.20797-7.232877 3.307597-7.302615 3.307597-7.382316C3.307597-7.442092 3.257783-7.481943 3.198007-7.481943C3.188045-7.481943 3.16812-7.47198 3.158157-7.47198Z'/>
<path id='g0-41' d='M.617684-7.47198C.577833-7.452055 .557908-7.422167 .557908-7.392279C.557908-7.272727 .787049-7.103362 .896638-6.983811C1.96264-5.748443 2.281445-4.064757 2.281445-2.49066C2.281445-.886675 1.952677 .936488 .757161 2.132005C.687422 2.201743 .557908 2.30137 .557908 2.381071C.557908 2.430884 .607721 2.480697 .667497 2.480697H.67746C.797011 2.460772 .996264 2.251557 1.115816 2.132005C2.371108 .876712 2.86924-.816936 2.86924-2.510585C2.86924-4.343711 2.271482-6.166874 .816936-7.402242C.767123-7.43213 .71731-7.481943 .657534-7.481943C.647572-7.481943 .637609-7.481943 .617684-7.47198Z'/>
<path id='g0-49' d='M.896638-6.007472V-5.69863C1.325031-5.69863 1.803238-5.748443 2.191781-5.957659V-.757161C2.191781-.368618 1.8132-.308842 1.424658-.308842C1.255293-.308842 1.085928-.318804 .946451-.318804V-.009963H4.184309V-.318804C4.014944-.318804 3.845579-.308842 3.686177-.308842C3.287671-.308842 2.938979-.368618 2.938979-.747198V-6.485679C2.938979-6.575342 2.909091-6.645081 2.799502-6.645081C2.660025-6.645081 2.49066-6.455791 2.381071-6.37609C1.942715-6.087173 1.404732-6.007472 .896638-6.007472Z'/>
<path id='g4-49' d='M2.336239-4.435367C2.336239-4.623661 2.322291-4.630635 2.127024-4.630635C1.680697-4.191283 1.046077-4.184309 .760149-4.184309V-3.93325C.927522-3.93325 1.387796-3.93325 1.771357-4.128518V-.571856C1.771357-.341719 1.771357-.251059 1.073973-.251059H.808966V0C.934496-.006974 1.792279-.027895 2.050311-.027895C2.266501-.027895 3.145205-.006974 3.29863 0V-.251059H3.033624C2.336239-.251059 2.336239-.341719 2.336239-.571856V-4.435367Z'/>
<path id='g4-61' d='M5.355915-2.343213C5.460523-2.343213 5.620922-2.343213 5.620922-2.517559C5.620922-2.684932 5.453549-2.684932 5.362889-2.684932H.746202C.655542-2.684932 .488169-2.684932 .488169-2.517559C.488169-2.343213 .648568-2.343213 .753176-2.343213H5.355915ZM5.362889-.808966C5.453549-.808966 5.620922-.808966 5.620922-.976339C5.620922-1.150685 5.460523-1.150685 5.355915-1.150685H.753176C.648568-1.150685 .488169-1.150685 .488169-.976339C.488169-.808966 .655542-.808966 .746202-.808966H5.362889Z'/>
<path id='g2-18' d='M3.563636-3.396264C3.563636-4.128518 3.284682-4.909589 2.601245-4.909589C1.555168-4.909589 .439352-3.040598 .439352-1.443587C.439352-.613699 .760149 .069738 1.401743 .069738C2.461768 .069738 3.563636-1.834122 3.563636-3.396264ZM1.227397-2.545455C1.583064-4.051806 2.182814-4.714321 2.594271-4.714321C3.040598-4.714321 3.040598-3.940224 3.040598-3.807721C3.040598-3.535741 2.984807-3.131258 2.838356-2.545455H1.227397ZM2.775592-2.294396C2.580324-1.534247 2.419925-1.157659 2.21071-.81594C1.994521-.4533 1.715567-.125529 1.408717-.125529C1.025156-.125529 .962391-.655542 .962391-1.03213C.962391-1.492403 1.094894-2.036364 1.164633-2.294396H2.775592Z'/>
<path id='g2-78' d='M5.816189-4.002989C5.885928-4.267995 5.997509-4.498132 6.555417-4.51208C6.590286-4.51208 6.694894-4.519054 6.694894-4.665504C6.694894-4.707347 6.660025-4.763138 6.590286-4.763138C6.360149-4.763138 6.102117-4.735243 5.865006-4.735243C5.697634-4.735243 5.293151-4.763138 5.125778-4.763138C5.090909-4.763138 4.986301-4.763138 4.986301-4.609714C4.986301-4.519054 5.076961-4.51208 5.139726-4.51208C5.467497-4.505106 5.586052-4.400498 5.586052-4.226152C5.586052-4.170361 5.579078-4.135492 5.558157-4.05878L4.798007-1.018182L3.02665-4.644583C2.970859-4.763138 2.956912-4.763138 2.789539-4.763138H1.834122C1.701619-4.763138 1.610959-4.763138 1.610959-4.609714C1.610959-4.51208 1.694645-4.51208 1.841096-4.51208S2.140971-4.505106 2.287422-4.47721L1.352927-.746202C1.290162-.481196 1.171606-.27198 .627646-.251059C.578829-.251059 .481196-.244085 .481196-.104608C.481196-.027895 .536986 0 .585803 0C.81594 0 1.073973-.027895 1.311083-.027895C1.478456-.027895 1.882939 0 2.050311 0C2.12005 0 2.189788-.034869 2.189788-.146451C2.189788-.244085 2.106102-.251059 2.02939-.251059C1.590037-.265006 1.590037-.446326 1.590037-.54396C1.590037-.571856 1.590037-.606725 1.617933-.718306L2.510585-4.288917L4.546949-.118555C4.60274-.006974 4.630635 0 4.700374 0C4.811955 0 4.811955-.020922 4.846824-.146451L5.816189-4.002989Z'/>
<path id='g2-105' d='M2.259527-4.358655C2.259527-4.470237 2.175841-4.623661 1.980573-4.623661C1.792279-4.623661 1.590037-4.442341 1.590037-4.2401C1.590037-4.121544 1.680697-3.975093 1.868991-3.975093C2.071233-3.975093 2.259527-4.170361 2.259527-4.358655ZM.836862-.81594C.808966-.72528 .774097-.641594 .774097-.523039C.774097-.195268 1.053051 .069738 1.436613 .069738C2.133998 .069738 2.440847-.892653 2.440847-.99726C2.440847-1.08792 2.350187-1.08792 2.329265-1.08792C2.231631-1.08792 2.224658-1.046077 2.196762-.969365C2.036364-.411457 1.729514-.125529 1.457534-.125529C1.318057-.125529 1.283188-.216189 1.283188-.369614C1.283188-.530012 1.332005-.662516 1.39477-.81594C1.464508-1.004234 1.54122-1.192528 1.617933-1.373848C1.680697-1.54122 1.931756-2.175841 1.959651-2.259527C1.980573-2.329265 2.001494-2.412951 2.001494-2.48269C2.001494-2.810461 1.72254-3.075467 1.338979-3.075467C.648568-3.075467 .327771-2.127024 .327771-2.008468C.327771-1.917808 .425405-1.917808 .446326-1.917808C.54396-1.917808 .550934-1.952677 .571856-2.02939C.753176-2.629141 1.060025-2.880199 1.318057-2.880199C1.429639-2.880199 1.492403-2.824408 1.492403-2.636115C1.492403-2.475716 1.45056-2.371108 1.276214-1.93873L.836862-.81594Z'/>
<path id='g1-18' d='M4.533001-4.98132C4.533001-5.638854 4.353674-7.023661 3.337484-7.023661C1.952677-7.023661 .418431-4.214197 .418431-1.932752C.418431-.996264 .707347 .109589 1.613948 .109589C3.01868 .109589 4.533001-2.749689 4.533001-4.98132ZM1.474471-3.616438C1.643836-4.254047 1.843088-5.051059 2.241594-5.758406C2.510585-6.246575 2.879203-6.804483 3.327522-6.804483C3.815691-6.804483 3.875467-6.166874 3.875467-5.599004C3.875467-5.110834 3.795766-4.60274 3.556663-3.616438H1.474471ZM3.466999-3.297634C3.35741-2.839352 3.148194-1.992528 2.769614-1.275218C2.420922-.597758 2.042341-.109589 1.613948-.109589C1.285181-.109589 1.075965-.398506 1.075965-1.325031C1.075965-1.743462 1.135741-2.321295 1.39477-3.297634H3.466999Z'/>
<path id='g1-76' d='M3.726027-6.027397C3.815691-6.386052 3.845579-6.495641 4.782067-6.495641C5.080946-6.495641 5.160648-6.495641 5.160648-6.684932C5.160648-6.804483 5.051059-6.804483 5.001245-6.804483C4.672478-6.804483 3.855542-6.774595 3.526775-6.774595C3.227895-6.774595 2.500623-6.804483 2.201743-6.804483C2.132005-6.804483 2.012453-6.804483 2.012453-6.60523C2.012453-6.495641 2.102117-6.495641 2.291407-6.495641C2.311333-6.495641 2.500623-6.495641 2.669988-6.475716C2.849315-6.455791 2.938979-6.445828 2.938979-6.316314C2.938979-6.276463 2.929016-6.246575 2.899128-6.127024L1.564134-.777086C1.464508-.388543 1.444583-.308842 .657534-.308842C.488169-.308842 .388543-.308842 .388543-.109589C.388543 0 .478207 0 .657534 0H5.270237C5.50934 0 5.519303 0 5.579078-.169365L6.366127-2.321295C6.405978-2.430884 6.405978-2.450809 6.405978-2.460772C6.405978-2.500623 6.37609-2.570361 6.286426-2.570361S6.1868-2.520548 6.117061-2.361146C5.778331-1.444583 5.339975-.308842 3.616438-.308842H2.67995C2.540473-.308842 2.520548-.308842 2.460772-.318804C2.361146-.328767 2.331258-.33873 2.331258-.418431C2.331258-.448319 2.331258-.468244 2.381071-.647572L3.726027-6.027397Z'/>
<path id='g1-97' d='M3.716065-3.765878C3.536737-4.134496 3.247821-4.403487 2.799502-4.403487C1.633873-4.403487 .398506-2.938979 .398506-1.484433C.398506-.547945 .946451 .109589 1.723537 .109589C1.92279 .109589 2.420922 .069738 3.01868-.637609C3.098381-.219178 3.447073 .109589 3.92528 .109589C4.273973 .109589 4.503113-.119552 4.662516-.438356C4.83188-.797011 4.961395-1.404732 4.961395-1.424658C4.961395-1.524284 4.871731-1.524284 4.841843-1.524284C4.742217-1.524284 4.732254-1.484433 4.702366-1.344956C4.533001-.697385 4.353674-.109589 3.945205-.109589C3.676214-.109589 3.646326-.368618 3.646326-.56787C3.646326-.787049 3.666252-.86675 3.775841-1.305106C3.88543-1.723537 3.905355-1.823163 3.995019-2.201743L4.353674-3.596513C4.423412-3.875467 4.423412-3.895392 4.423412-3.935243C4.423412-4.104608 4.303861-4.204234 4.134496-4.204234C3.895392-4.204234 3.745953-3.985056 3.716065-3.765878ZM3.068493-1.185554C3.01868-1.006227 3.01868-.986301 2.86924-.816936C2.430884-.268991 2.022416-.109589 1.743462-.109589C1.24533-.109589 1.105853-.657534 1.105853-1.046077C1.105853-1.544209 1.424658-2.769614 1.653798-3.227895C1.96264-3.815691 2.410959-4.184309 2.809465-4.184309C3.457036-4.184309 3.596513-3.367372 3.596513-3.307597S3.576588-3.188045 3.566625-3.138232L3.068493-1.185554Z'/>
<path id='g1-103' d='M4.692403-3.755915C4.702366-3.815691 4.722291-3.865504 4.722291-3.935243C4.722291-4.104608 4.60274-4.204234 4.433375-4.204234C4.333748-4.204234 4.064757-4.134496 4.024907-3.775841C3.845579-4.144458 3.496887-4.403487 3.098381-4.403487C1.96264-4.403487 .727273-3.008717 .727273-1.574097C.727273-.587796 1.334994 0 2.052304 0C2.6401 0 3.108344-.468244 3.20797-.577833L3.217933-.56787C3.008717 .318804 2.889166 .727273 2.889166 .747198C2.849315 .836862 2.510585 1.823163 1.454545 1.823163C1.265255 1.823163 .936488 1.8132 .657534 1.723537C.956413 1.633873 1.066002 1.374844 1.066002 1.205479C1.066002 1.046077 .956413 .856787 .687422 .856787C.468244 .856787 .14944 1.036115 .14944 1.43462C.14944 1.843088 .518057 2.042341 1.474471 2.042341C2.719801 2.042341 3.437111 1.265255 3.58655 .667497L4.692403-3.755915ZM3.39726-1.275218C3.337484-1.016189 3.108344-.767123 2.889166-.577833C2.67995-.398506 2.371108-.219178 2.082192-.219178C1.58406-.219178 1.43462-.737235 1.43462-1.135741C1.43462-1.613948 1.723537-2.789539 1.992528-3.297634C2.261519-3.785803 2.689913-4.184309 3.108344-4.184309C3.765878-4.184309 3.905355-3.377335 3.905355-3.327522S3.88543-3.217933 3.875467-3.178082L3.39726-1.275218Z'/>
<path id='g1-109' d='M.876712-.587796C.846824-.438356 .787049-.209215 .787049-.159402C.787049 .019925 .926526 .109589 1.075965 .109589C1.195517 .109589 1.374844 .029888 1.444583-.169365C1.454545-.18929 1.574097-.657534 1.633873-.9066L1.853051-1.803238C1.912827-2.022416 1.972603-2.241594 2.022416-2.470735C2.062267-2.6401 2.141968-2.929016 2.15193-2.968867C2.30137-3.277709 2.82939-4.184309 3.775841-4.184309C4.224159-4.184309 4.313823-3.815691 4.313823-3.486924C4.313823-3.237858 4.244085-2.958904 4.164384-2.660025L3.88543-1.504359L3.686177-.747198C3.646326-.547945 3.556663-.209215 3.556663-.159402C3.556663 .019925 3.696139 .109589 3.845579 .109589C4.154421 .109589 4.214197-.139477 4.293898-.458281C4.433375-1.016189 4.801993-2.470735 4.891656-2.859278C4.921544-2.988792 5.449564-4.184309 6.535492-4.184309C6.963885-4.184309 7.073474-3.845579 7.073474-3.486924C7.073474-2.919054 6.655044-1.783313 6.455791-1.255293C6.366127-1.016189 6.326276-.9066 6.326276-.707347C6.326276-.239103 6.674969 .109589 7.143213 .109589C8.079701 .109589 8.448319-1.344956 8.448319-1.424658C8.448319-1.524284 8.358655-1.524284 8.328767-1.524284C8.229141-1.524284 8.229141-1.494396 8.179328-1.344956C8.029888-.816936 7.711083-.109589 7.163138-.109589C6.993773-.109589 6.924035-.209215 6.924035-.438356C6.924035-.687422 7.013699-.926526 7.103362-1.145704C7.292653-1.663761 7.711083-2.769614 7.711083-3.337484C7.711083-3.985056 7.312578-4.403487 6.56538-4.403487S5.310087-3.965131 4.941469-3.437111C4.931507-3.566625 4.901619-3.905355 4.622665-4.144458C4.373599-4.353674 4.054795-4.403487 3.805729-4.403487C2.909091-4.403487 2.420922-3.765878 2.251557-3.536737C2.201743-4.104608 1.783313-4.403487 1.334994-4.403487C.876712-4.403487 .687422-4.014944 .597758-3.835616C.418431-3.486924 .288917-2.899128 .288917-2.86924C.288917-2.769614 .388543-2.769614 .408468-2.769614C.508095-2.769614 .518057-2.779577 .577833-2.998755C.747198-3.706102 .946451-4.184309 1.305106-4.184309C1.464508-4.184309 1.613948-4.104608 1.613948-3.726027C1.613948-3.516812 1.58406-3.407223 1.454545-2.889166L.876712-.587796Z'/>
<path id='g1-114' d='M.876712-.587796C.846824-.438356 .787049-.209215 .787049-.159402C.787049 .019925 .926526 .109589 1.075965 .109589C1.195517 .109589 1.374844 .029888 1.444583-.169365C1.464508-.209215 1.803238-1.564134 1.843088-1.743462C1.92279-2.072229 2.102117-2.769614 2.161893-3.038605C2.201743-3.16812 2.480697-3.636364 2.719801-3.855542C2.799502-3.92528 3.088418-4.184309 3.516812-4.184309C3.775841-4.184309 3.92528-4.064757 3.935243-4.064757C3.636364-4.014944 3.417186-3.775841 3.417186-3.516812C3.417186-3.35741 3.526775-3.16812 3.795766-3.16812S4.343711-3.39726 4.343711-3.755915C4.343711-4.104608 4.024907-4.403487 3.516812-4.403487C2.86924-4.403487 2.430884-3.915318 2.241594-3.636364C2.161893-4.084682 1.803238-4.403487 1.334994-4.403487C.876712-4.403487 .687422-4.014944 .597758-3.835616C.418431-3.496887 .288917-2.899128 .288917-2.86924C.288917-2.769614 .388543-2.769614 .408468-2.769614C.508095-2.769614 .518057-2.779577 .577833-2.998755C.747198-3.706102 .946451-4.184309 1.305106-4.184309C1.474471-4.184309 1.613948-4.104608 1.613948-3.726027C1.613948-3.516812 1.58406-3.407223 1.454545-2.889166L.876712-.587796Z'/>
<path id='g1-120' d='M3.327522-3.008717C3.387298-3.267746 3.616438-4.184309 4.313823-4.184309C4.363636-4.184309 4.60274-4.184309 4.811955-4.054795C4.533001-4.004981 4.333748-3.755915 4.333748-3.516812C4.333748-3.35741 4.443337-3.16812 4.712329-3.16812C4.931507-3.16812 5.250311-3.347447 5.250311-3.745953C5.250311-4.26401 4.662516-4.403487 4.323786-4.403487C3.745953-4.403487 3.39726-3.875467 3.277709-3.646326C3.028643-4.303861 2.49066-4.403487 2.201743-4.403487C1.165629-4.403487 .597758-3.118306 .597758-2.86924C.597758-2.769614 .697385-2.769614 .71731-2.769614C.797011-2.769614 .826899-2.789539 .846824-2.879203C1.185554-3.935243 1.843088-4.184309 2.181818-4.184309C2.371108-4.184309 2.719801-4.094645 2.719801-3.516812C2.719801-3.20797 2.550436-2.540473 2.181818-1.145704C2.022416-.52802 1.673724-.109589 1.235367-.109589C1.175592-.109589 .946451-.109589 .737235-.239103C.986301-.288917 1.205479-.498132 1.205479-.777086C1.205479-1.046077 .986301-1.125778 .836862-1.125778C.537983-1.125778 .288917-.86675 .288917-.547945C.288917-.089664 .787049 .109589 1.225405 .109589C1.882939 .109589 2.241594-.587796 2.271482-.647572C2.391034-.278954 2.749689 .109589 3.347447 .109589C4.373599 .109589 4.941469-1.175592 4.941469-1.424658C4.941469-1.524284 4.851806-1.524284 4.821918-1.524284C4.732254-1.524284 4.712329-1.484433 4.692403-1.414695C4.363636-.348692 3.686177-.109589 3.367372-.109589C2.978829-.109589 2.819427-.428394 2.819427-.767123C2.819427-.986301 2.879203-1.205479 2.988792-1.643836L3.327522-3.008717Z'/>
<path id='g3-5' d='M6.107098-5.997509C6.107098-6.356164 6.127024-6.465753 6.894147-6.465753H7.13325V-6.774595H.328767V-6.465753H.56787C1.334994-6.465753 1.354919-6.356164 1.354919-5.997509V-.777086C1.354919-.418431 1.334994-.308842 .56787-.308842H.328767V0C.67746-.029888 1.414695-.029888 1.793275-.029888S2.919054-.029888 3.267746 0V-.308842H3.028643C2.261519-.308842 2.241594-.418431 2.241594-.777086V-6.465753H5.220423V-.777086C5.220423-.418431 5.200498-.308842 4.433375-.308842H4.194271V0C4.542964-.029888 5.280199-.029888 5.65878-.029888S6.784558-.029888 7.13325 0V-.308842H6.894147C6.127024-.308842 6.107098-.418431 6.107098-.777086V-5.997509Z'/>
<path id='g3-40' d='M3.297634 2.391034C3.297634 2.361146 3.297634 2.34122 3.128269 2.171856C1.882939 .916563 1.564134-.966376 1.564134-2.49066C1.564134-4.224159 1.942715-5.957659 3.16812-7.202989C3.297634-7.32254 3.297634-7.342466 3.297634-7.372354C3.297634-7.442092 3.257783-7.47198 3.198007-7.47198C3.098381-7.47198 2.201743-6.794521 1.613948-5.529265C1.105853-4.433375 .986301-3.327522 .986301-2.49066C.986301-1.713574 1.09589-.508095 1.643836 .617684C2.241594 1.843088 3.098381 2.49066 3.198007 2.49066C3.257783 2.49066 3.297634 2.460772 3.297634 2.391034Z'/>
<path id='g3-41' d='M2.879203-2.49066C2.879203-3.267746 2.769614-4.473225 2.221669-5.599004C1.62391-6.824408 .767123-7.47198 .667497-7.47198C.607721-7.47198 .56787-7.43213 .56787-7.372354C.56787-7.342466 .56787-7.32254 .757161-7.143213C1.733499-6.156912 2.30137-4.572852 2.30137-2.49066C2.30137-.787049 1.932752 .966376 .697385 2.221669C.56787 2.34122 .56787 2.361146 .56787 2.391034C.56787 2.450809 .607721 2.49066 .667497 2.49066C.767123 2.49066 1.663761 1.8132 2.251557 .547945C2.759651-.547945 2.879203-1.653798 2.879203-2.49066Z'/>
<path id='g3-61' d='M6.844334-3.257783C6.993773-3.257783 7.183064-3.257783 7.183064-3.457036S6.993773-3.656289 6.854296-3.656289H.886675C.747198-3.656289 .557908-3.656289 .557908-3.457036S.747198-3.257783 .896638-3.257783H6.844334ZM6.854296-1.325031C6.993773-1.325031 7.183064-1.325031 7.183064-1.524284S6.993773-1.723537 6.844334-1.723537H.896638C.747198-1.723537 .557908-1.723537 .557908-1.524284S.747198-1.325031 .886675-1.325031H6.854296Z'/>
<path id='g3-94' d='M2.49066-6.914072L1.155666-5.559153L1.334994-5.379826L2.49066-6.396015L3.636364-5.379826L3.815691-5.559153L2.49066-6.914072Z'/>
</defs>
<g id='page1' transform='matrix(2.331429 0 0 2.331429 0 0)'>
<rect x='183.363093' y='19.7519' width='314.117409' height='12.038204' fill='#242424'/>
<g fill='#f6f3e8'>
<use x='184.179505' y='26.670402' xlink:href='#g3-94'/>
<use x='183.363093' y='29.299444' xlink:href='#g1-18'/>
<use x='191.084079' y='29.299444' xlink:href='#g3-61'/>
<use x='201.600159' y='29.299444' xlink:href='#g1-97'/>
<use x='206.866313' y='29.299444' xlink:href='#g1-114'/>
<use x='211.637801' y='29.299444' xlink:href='#g1-103'/>
<use x='216.747108' y='29.299444' xlink:href='#g1-109'/>
<use x='225.494442' y='29.299444' xlink:href='#g1-97'/>
<use x='230.760596' y='29.299444' xlink:href='#g1-120'/>
<use x='236.454471' y='31.734739' xlink:href='#g2-18'/>
<use x='240.961845' y='29.299444' xlink:href='#g3-5'/>
<use x='248.433844' y='25.185948' xlink:href='#g2-78'/>
<use x='248.433844' y='31.762376' xlink:href='#g2-105'/>
<use x='251.252571' y='31.762376' xlink:href='#g4-61'/>
<use x='257.368555' y='31.762376' xlink:href='#g4-49'/>
<use x='261.837909' y='29.299444' xlink:href='#g1-76'/>
<use x='268.618056' y='30.793825' xlink:href='#g2-105'/>
<use x='271.934903' y='29.299444' xlink:href='#g3-40'/>
<use x='275.809276' y='29.299444' xlink:href='#g1-18'/>
<use x='280.762929' y='29.299444' xlink:href='#g3-41'/>
<use x='484.75357' y='29.299444' xlink:href='#g0-40'/>
<use x='488.626984' y='29.299444' xlink:href='#g0-49'/>
<use x='493.607088' y='29.299444' xlink:href='#g0-41'/>
</g>
</g>
</svg>