<?xml version='1.0' encoding='UTF-8'?>
<!-- This file was generated by dvisvgm 2.8.1 -->
<svg version='1.1' xmlns='http://www.w3.org/2000/svg' xmlns:xlink='http://www.w3.org/1999/xlink' width='621.931131pt' height='23.221513pt' viewBox='537.909126 50.893426 621.931131 23.221513'>
<defs>
<path id='g0-40' d='M3.158157-7.47198C3.01868-7.422167 2.839352-7.222914 2.719801-7.103362C1.494396-5.877958 .996264-4.184309 .996264-2.500623C.996264-.697385 1.58406 1.225405 3.048568 2.400996C3.098381 2.430884 3.158157 2.480697 3.217933 2.480697S3.307597 2.420922 3.307597 2.381071C3.307597 2.271482 3.038605 2.062267 2.929016 1.932752C1.902864 .707347 1.58406-.926526 1.58406-2.49066C1.58406-4.134496 1.912827-5.937733 3.148194-7.173101C3.20797-7.232877 3.307597-7.302615 3.307597-7.382316C3.307597-7.442092 3.257783-7.481943 3.198007-7.481943C3.188045-7.481943 3.16812-7.47198 3.158157-7.47198Z'/>
<path id='g0-41' d='M.617684-7.47198C.577833-7.452055 .557908-7.422167 .557908-7.392279C.557908-7.272727 .787049-7.103362 .896638-6.983811C1.96264-5.748443 2.281445-4.064757 2.281445-2.49066C2.281445-.886675 1.952677 .936488 .757161 2.132005C.687422 2.201743 .557908 2.30137 .557908 2.381071C.557908 2.430884 .607721 2.480697 .667497 2.480697H.67746C.797011 2.460772 .996264 2.251557 1.115816 2.132005C2.371108 .876712 2.86924-.816936 2.86924-2.510585C2.86924-4.343711 2.271482-6.166874 .816936-7.402242C.767123-7.43213 .71731-7.481943 .657534-7.481943C.647572-7.481943 .637609-7.481943 .617684-7.47198Z'/>
<path id='g0-49' d='M.896638-6.007472V-5.69863C1.325031-5.69863 1.803238-5.748443 2.191781-5.957659V-.757161C2.191781-.368618 1.8132-.308842 1.424658-.308842C1.255293-.308842 1.085928-.318804 .946451-.318804V-.009963H4.184309V-.318804C4.014944-.318804 3.845579-.308842 3.686177-.308842C3.287671-.308842 2.938979-.368618 2.938979-.747198V-6.485679C2.938979-6.575342 2.909091-6.645081 2.799502-6.645081C2.660025-6.645081 2.49066-6.455791 2.381071-6.37609C1.942715-6.087173 1.404732-6.007472 .896638-6.007472Z'/>
<path id='g1-33' d='M6.027397-3.706102C6.027397-4.154421 5.84807-4.403487 5.628892-4.403487C5.369863-4.403487 5.100872-4.164384 5.100872-3.935243C5.100872-3.835616 5.150685-3.726027 5.250311-3.636364C5.419676-3.486924 5.599004-3.217933 5.599004-2.799502C5.599004-2.400996 5.409714-1.833126 5.100872-1.374844C4.801993-.946451 4.433375-.607721 3.965131-.607721C3.39726-.607721 3.088418-.966376 2.998755-1.504359C3.108344-1.763387 3.337484-2.400996 3.337484-2.67995C3.337484-2.799502 3.287671-2.899128 3.158157-2.899128C3.078456-2.899128 2.968867-2.879203 2.889166-2.729763C2.779577-2.530511 2.660025-1.882939 2.660025-1.524284C2.331258-1.05604 1.932752-.607721 1.305106-.607721C.647572-.607721 .438356-1.195517 .438356-1.753425C.438356-2.998755 1.454545-4.044832 1.454545-4.174346C1.454545-4.283935 1.374844-4.363636 1.265255-4.363636C1.135741-4.363636 1.066002-4.234122 1.006227-4.144458C.498132-3.407223 .119552-2.221669 .119552-1.315068C.119552-.627646 .348692 .109589 1.165629 .109589C1.872976 .109589 2.34122-.388543 2.699875-.936488C2.789539-.358655 3.178082 .109589 3.795766 .109589C4.572852 .109589 5.051059-.498132 5.409714-1.24533C5.648817-1.733499 6.027397-3.088418 6.027397-3.706102Z'/>
</defs>
<g id='page1' transform='matrix(2.331429 0 0 2.331429 0 0)'>
<rect x='230.720826' y='21.829288' width='266.759676' height='9.960208' fill='#242424'/>
<g fill='#f6f3e8'>
<use x='230.720826' y='29.299444' xlink:href='#g1-33'/>
<use x='484.75357' y='29.299444' xlink:href='#g0-40'/>
<use x='488.626984' y='29.299444' xlink:href='#g0-49'/>
<use x='493.607088' y='29.299444' xlink:href='#g0-41'/>
</g>
</g>
</svg>