<?xml version='1.0' encoding='UTF-8'?>
<!-- This file was generated by dvisvgm 2.8.1 -->
<svg version='1.1' xmlns='http://www.w3.org/2000/svg' xmlns:xlink='http://www.w3.org/1999/xlink' width='752.515672pt' height='56.208187pt' viewBox='407.324584 42.759655 752.515672 56.208187'>
<defs>
<path id='g6-49' d='M1.982565-3.16812C1.982565-3.317559 1.967621-3.317559 1.803238-3.317559C1.449564-2.998755 .896638-2.998755 .797011-2.998755H.712329V-2.779577H.797011C.911582-2.779577 1.235367-2.794521 1.524284-2.919054V-.428394C1.524284-.273973 1.524284-.219178 .996264-.219178H.747198V0C1.021171-.019925 1.464508-.019925 1.753425-.019925S2.485679-.019925 2.759651 0V-.219178H2.510585C1.982565-.219178 1.982565-.273973 1.982565-.428394V-3.16812Z'/>
<path id='g6-50' d='M2.933998-.961395H2.724782C2.709838-.86675 2.660025-.557908 2.580324-.508095C2.540473-.478207 2.122042-.478207 2.047323-.478207H1.070984C1.399751-.722291 1.768369-1.001245 2.067248-1.200498C2.515567-1.50934 2.933998-1.798257 2.933998-2.326276C2.933998-2.963885 2.331258-3.317559 1.618929-3.317559C.946451-3.317559 .4533-2.929016 .4533-2.440847C.4533-2.181818 .672478-2.136986 .742217-2.136986C.876712-2.136986 1.036115-2.22665 1.036115-2.430884C1.036115-2.610212 .9066-2.709838 .752179-2.724782C.891656-2.948941 1.180573-3.098381 1.514321-3.098381C1.997509-3.098381 2.400996-2.809465 2.400996-2.321295C2.400996-1.902864 2.11208-1.58406 1.728518-1.260274L.513076-.229141C.463263-.184309 .458281-.184309 .4533-.14944V0H2.769614L2.933998-.961395Z'/>
<path id='g0-40' d='M3.158157-7.47198C3.01868-7.422167 2.839352-7.222914 2.719801-7.103362C1.494396-5.877958 .996264-4.184309 .996264-2.500623C.996264-.697385 1.58406 1.225405 3.048568 2.400996C3.098381 2.430884 3.158157 2.480697 3.217933 2.480697S3.307597 2.420922 3.307597 2.381071C3.307597 2.271482 3.038605 2.062267 2.929016 1.932752C1.902864 .707347 1.58406-.926526 1.58406-2.49066C1.58406-4.134496 1.912827-5.937733 3.148194-7.173101C3.20797-7.232877 3.307597-7.302615 3.307597-7.382316C3.307597-7.442092 3.257783-7.481943 3.198007-7.481943C3.188045-7.481943 3.16812-7.47198 3.158157-7.47198Z'/>
<path id='g0-41' d='M.617684-7.47198C.577833-7.452055 .557908-7.422167 .557908-7.392279C.557908-7.272727 .787049-7.103362 .896638-6.983811C1.96264-5.748443 2.281445-4.064757 2.281445-2.49066C2.281445-.886675 1.952677 .936488 .757161 2.132005C.687422 2.201743 .557908 2.30137 .557908 2.381071C.557908 2.430884 .607721 2.480697 .667497 2.480697H.67746C.797011 2.460772 .996264 2.251557 1.115816 2.132005C2.371108 .876712 2.86924-.816936 2.86924-2.510585C2.86924-4.343711 2.271482-6.166874 .816936-7.402242C.767123-7.43213 .71731-7.481943 .657534-7.481943C.647572-7.481943 .637609-7.481943 .617684-7.47198Z'/>
<path id='g0-49' d='M.896638-6.007472V-5.69863C1.325031-5.69863 1.803238-5.748443 2.191781-5.957659V-.757161C2.191781-.368618 1.8132-.308842 1.424658-.308842C1.255293-.308842 1.085928-.318804 .946451-.318804V-.009963H4.184309V-.318804C4.014944-.318804 3.845579-.308842 3.686177-.308842C3.287671-.308842 2.938979-.368618 2.938979-.747198V-6.485679C2.938979-6.575342 2.909091-6.645081 2.799502-6.645081C2.660025-6.645081 2.49066-6.455791 2.381071-6.37609C1.942715-6.087173 1.404732-6.007472 .896638-6.007472Z'/>
<path id='g4-78' d='M4.757161-2.834371C4.79203-2.973848 4.841843-3.163138 5.295143-3.178082C5.334994-3.178082 5.424658-3.183064 5.424658-3.317559C5.424658-3.337484 5.409714-3.402242 5.339975-3.402242C5.250311-3.402242 5.145704-3.387298 5.05604-3.387298S4.871731-3.382316 4.777086-3.382316C4.67746-3.382316 4.582814-3.387298 4.483188-3.387298C4.393524-3.387298 4.288917-3.402242 4.199253-3.402242C4.164384-3.402242 4.079701-3.402242 4.079701-3.262765C4.079701-3.178082 4.154421-3.178082 4.204234-3.178082C4.533001-3.173101 4.552927-3.068493 4.552927-2.983811C4.552927-2.948941 4.542964-2.924035 4.537983-2.894147L4-.752179L2.505604-3.317559C2.455791-3.402242 2.445828-3.402242 2.326276-3.402242H1.554172C1.454545-3.402242 1.379826-3.402242 1.379826-3.262765C1.379826-3.178082 1.444583-3.178082 1.564134-3.178082C1.579078-3.178082 1.778331-3.178082 1.902864-3.158157L1.250311-.557908C1.215442-.423412 1.17061-.234122 .707347-.224159C.667497-.224159 .582814-.219178 .582814-.084682C.582814-.039851 .622665 0 .667497 0C.757161 0 .861768-.014944 .951432-.014944C1.046077-.014944 1.140722-.019925 1.235367-.019925C1.334994-.019925 1.429639-.014944 1.529265-.014944C1.618929-.014944 1.723537 0 1.8132 0C1.877958 0 1.932752-.034869 1.932752-.139477C1.932752-.224159 1.858032-.224159 1.803238-.224159C1.554172-.229141 1.459527-.293898 1.459527-.41345C1.459527-.448319 1.469489-.478207 1.479452-.52802L2.102117-3.028643L3.815691-.089664C3.865504 0 3.895392 0 3.950187 0C4.049813 0 4.054795-.024907 4.079701-.129514L4.757161-2.834371Z'/>
<path id='g3-107' d='M2.182814-4.630635C2.189788-4.644583 2.21071-4.735243 2.21071-4.742217C2.21071-4.777086 2.182814-4.839851 2.099128-4.839851C1.959651-4.839851 1.380822-4.78406 1.206476-4.770112C1.150685-4.763138 1.053051-4.756164 1.053051-4.609714C1.053051-4.51208 1.150685-4.51208 1.234371-4.51208C1.569116-4.51208 1.569116-4.463263 1.569116-4.407472C1.569116-4.358655 1.555168-4.316812 1.54122-4.254047L.557908-.306849C.523039-.18132 .523039-.167372 .523039-.153425C.523039-.048817 .606725 .069738 .760149 .069738C.948443 .069738 1.039103-.069738 1.080946-.223163C1.094894-.251059 1.39477-1.478456 1.422665-1.57609C1.917808-1.527273 2.315318-1.366874 2.315318-1.004234C2.315318-.969365 2.315318-.934496 2.30137-.864757C2.273474-.760149 2.273474-.72528 2.273474-.648568C2.273474-.153425 2.677958 .069738 3.012702 .069738C3.689166 .069738 3.898381-.990286 3.898381-.99726C3.898381-1.08792 3.807721-1.08792 3.7868-1.08792C3.689166-1.08792 3.682192-1.053051 3.647323-.920548C3.563636-.620672 3.375342-.125529 3.033624-.125529C2.84533-.125529 2.789539-.299875 2.789539-.488169C2.789539-.606725 2.789539-.620672 2.831382-.801993C2.838356-.822914 2.866252-.941469 2.866252-1.018182C2.866252-1.638854 2.02939-1.736488 1.736488-1.75741C1.93873-1.882939 2.196762-2.113076 2.315318-2.217684C2.670984-2.552428 3.019676-2.880199 3.410212-2.880199C3.493898-2.880199 3.584558-2.859278 3.640349-2.789539C3.340473-2.740722 3.277709-2.503611 3.277709-2.399004C3.277709-2.245579 3.396264-2.140971 3.556663-2.140971C3.744956-2.140971 3.954172-2.294396 3.954172-2.587298C3.954172-2.817435 3.7868-3.075467 3.417186-3.075467C3.019676-3.075467 2.657036-2.789539 2.30137-2.461768C2.008468-2.182814 1.778331-1.966625 1.492403-1.84807L2.182814-4.630635Z'/>
<path id='g1-106' d='M1.58406-7.113325C1.58406-7.292653 1.58406-7.47198 1.384807-7.47198S1.185554-7.292653 1.185554-7.113325V2.132005C1.185554 2.311333 1.185554 2.49066 1.384807 2.49066S1.58406 2.311333 1.58406 2.132005V-7.113325Z'/>
<path id='g5-6' d='M3.706102-3.247821C3.795766-3.347447 3.795766-3.387298 3.795766-3.407223C3.795766-3.457036 3.755915-3.506849 3.726027-3.5467L1.683686-6.495641H3.985056C5.668742-6.495641 6.166874-6.136986 6.37609-4.562889H6.625156L6.346202-6.804483H.816936C.577833-6.804483 .557908-6.804483 .557908-6.575342L3.038605-2.968867L.667497-.268991C.56787-.159402 .56787-.139477 .56787-.109589C.56787 0 .667497 0 .816936 0H6.346202L6.625156-2.351183H6.37609C6.196762-.687422 5.519303-.418431 3.955168-.418431H1.205479L3.706102-3.247821Z'/>
<path id='g5-40' d='M3.297634 2.391034C3.297634 2.361146 3.297634 2.34122 3.128269 2.171856C1.882939 .916563 1.564134-.966376 1.564134-2.49066C1.564134-4.224159 1.942715-5.957659 3.16812-7.202989C3.297634-7.32254 3.297634-7.342466 3.297634-7.372354C3.297634-7.442092 3.257783-7.47198 3.198007-7.47198C3.098381-7.47198 2.201743-6.794521 1.613948-5.529265C1.105853-4.433375 .986301-3.327522 .986301-2.49066C.986301-1.713574 1.09589-.508095 1.643836 .617684C2.241594 1.843088 3.098381 2.49066 3.198007 2.49066C3.257783 2.49066 3.297634 2.460772 3.297634 2.391034Z'/>
<path id='g5-41' d='M2.879203-2.49066C2.879203-3.267746 2.769614-4.473225 2.221669-5.599004C1.62391-6.824408 .767123-7.47198 .667497-7.47198C.607721-7.47198 .56787-7.43213 .56787-7.372354C.56787-7.342466 .56787-7.32254 .757161-7.143213C1.733499-6.156912 2.30137-4.572852 2.30137-2.49066C2.30137-.787049 1.932752 .966376 .697385 2.221669C.56787 2.34122 .56787 2.361146 .56787 2.391034C.56787 2.450809 .607721 2.49066 .667497 2.49066C.767123 2.49066 1.663761 1.8132 2.251557 .547945C2.759651-.547945 2.879203-1.653798 2.879203-2.49066Z'/>
<path id='g5-49' d='M2.929016-6.37609C2.929016-6.615193 2.929016-6.635118 2.699875-6.635118C2.082192-5.997509 1.205479-5.997509 .886675-5.997509V-5.688667C1.085928-5.688667 1.673724-5.688667 2.191781-5.947696V-.787049C2.191781-.428394 2.161893-.308842 1.265255-.308842H.946451V0C1.295143-.029888 2.161893-.029888 2.560399-.029888S3.825654-.029888 4.174346 0V-.308842H3.855542C2.958904-.308842 2.929016-.418431 2.929016-.787049V-6.37609Z'/>
<path id='g5-50' d='M1.265255-.767123L2.321295-1.793275C3.875467-3.16812 4.473225-3.706102 4.473225-4.702366C4.473225-5.838107 3.576588-6.635118 2.361146-6.635118C1.235367-6.635118 .498132-5.718555 .498132-4.83188C.498132-4.273973 .996264-4.273973 1.026152-4.273973C1.195517-4.273973 1.544209-4.393524 1.544209-4.801993C1.544209-5.061021 1.364882-5.32005 1.016189-5.32005C.936488-5.32005 .916563-5.32005 .886675-5.310087C1.115816-5.957659 1.653798-6.326276 2.231631-6.326276C3.138232-6.326276 3.566625-5.519303 3.566625-4.702366C3.566625-3.905355 3.068493-3.118306 2.520548-2.500623L.607721-.368618C.498132-.259029 .498132-.239103 .498132 0H4.194271L4.473225-1.733499H4.224159C4.174346-1.43462 4.104608-.996264 4.004981-.846824C3.935243-.767123 3.277709-.767123 3.058531-.767123H1.265255Z'/>
<path id='g5-61' d='M6.844334-3.257783C6.993773-3.257783 7.183064-3.257783 7.183064-3.457036S6.993773-3.656289 6.854296-3.656289H.886675C.747198-3.656289 .557908-3.656289 .557908-3.457036S.747198-3.257783 .896638-3.257783H6.844334ZM6.854296-1.325031C6.993773-1.325031 7.183064-1.325031 7.183064-1.524284S6.993773-1.723537 6.844334-1.723537H.896638C.747198-1.723537 .557908-1.723537 .557908-1.524284S.747198-1.325031 .886675-1.325031H6.854296Z'/>
<path id='g2-25' d='M2.6401-3.716065H3.765878C3.437111-2.241594 3.347447-1.8132 3.347447-1.145704C3.347447-.996264 3.347447-.727273 3.427148-.388543C3.526775 .049813 3.636364 .109589 3.785803 .109589C3.985056 .109589 4.194271-.069738 4.194271-.268991C4.194271-.328767 4.194271-.348692 4.134496-.488169C3.845579-1.205479 3.845579-1.853051 3.845579-2.132005C3.845579-2.660025 3.915318-3.198007 4.024907-3.716065H5.160648C5.290162-3.716065 5.648817-3.716065 5.648817-4.054795C5.648817-4.293898 5.439601-4.293898 5.250311-4.293898H1.912827C1.693649-4.293898 1.315068-4.293898 .876712-3.825654C.52802-3.437111 .268991-2.978829 .268991-2.929016C.268991-2.919054 .268991-2.82939 .388543-2.82939C.468244-2.82939 .488169-2.86924 .547945-2.948941C1.036115-3.716065 1.613948-3.716065 1.8132-3.716065H2.381071C2.062267-2.510585 1.524284-1.305106 1.105853-.398506C1.026152-.249066 1.026152-.229141 1.026152-.159402C1.026152 .029888 1.185554 .109589 1.315068 .109589C1.613948 .109589 1.693649-.169365 1.8132-.537983C1.952677-.996264 1.952677-1.016189 2.082192-1.514321L2.6401-3.716065Z'/>
<path id='g2-67' d='M7.571606-6.924035C7.571606-6.953923 7.551681-7.023661 7.462017-7.023661C7.43213-7.023661 7.422167-7.013699 7.312578-6.90411L6.615193-6.136986C6.525529-6.276463 6.067248-7.023661 4.961395-7.023661C2.739726-7.023661 .498132-4.821918 .498132-2.510585C.498132-.86675 1.673724 .219178 3.198007 .219178C4.064757 .219178 4.821918-.179328 5.349938-.637609C6.276463-1.454545 6.445828-2.361146 6.445828-2.391034C6.445828-2.49066 6.346202-2.49066 6.326276-2.49066C6.266501-2.49066 6.216687-2.470735 6.196762-2.391034C6.107098-2.102117 5.877958-1.39477 5.190535-.816936C4.503113-.259029 3.875467-.089664 3.35741-.089664C2.460772-.089664 1.404732-.607721 1.404732-2.161893C1.404732-2.729763 1.613948-4.343711 2.610212-5.50934C3.217933-6.216687 4.154421-6.714819 5.041096-6.714819C6.057285-6.714819 6.645081-5.947696 6.645081-4.79203C6.645081-4.393524 6.615193-4.383562 6.615193-4.283935S6.724782-4.184309 6.764633-4.184309C6.894147-4.184309 6.894147-4.204234 6.94396-4.383562L7.571606-6.924035Z'/>
<path id='g2-101' d='M1.863014-2.30137C2.15193-2.30137 2.889166-2.321295 3.387298-2.530511C4.084682-2.82939 4.134496-3.417186 4.134496-3.556663C4.134496-3.995019 3.755915-4.403487 3.068493-4.403487C1.96264-4.403487 .458281-3.437111 .458281-1.693649C.458281-.67746 1.046077 .109589 2.022416 .109589C3.447073 .109589 4.283935-.946451 4.283935-1.066002C4.283935-1.125778 4.224159-1.195517 4.164384-1.195517C4.11457-1.195517 4.094645-1.175592 4.034869-1.09589C3.247821-.109589 2.161893-.109589 2.042341-.109589C1.265255-.109589 1.175592-.946451 1.175592-1.265255C1.175592-1.384807 1.185554-1.693649 1.334994-2.30137H1.863014ZM1.39477-2.520548C1.783313-4.034869 2.809465-4.184309 3.068493-4.184309C3.536737-4.184309 3.805729-3.895392 3.805729-3.556663C3.805729-2.520548 2.211706-2.520548 1.803238-2.520548H1.39477Z'/>
<path id='g2-112' d='M.448319 1.215442C.368618 1.554172 .348692 1.62391-.089664 1.62391C-.209215 1.62391-.318804 1.62391-.318804 1.8132C-.318804 1.892902-.268991 1.932752-.18929 1.932752C.079701 1.932752 .368618 1.902864 .647572 1.902864C.976339 1.902864 1.315068 1.932752 1.633873 1.932752C1.683686 1.932752 1.8132 1.932752 1.8132 1.733499C1.8132 1.62391 1.713574 1.62391 1.574097 1.62391C1.075965 1.62391 1.075965 1.554172 1.075965 1.464508C1.075965 1.344956 1.494396-.278954 1.564134-.52802C1.693649-.239103 1.972603 .109589 2.480697 .109589C3.636364 .109589 4.881694-1.344956 4.881694-2.809465C4.881694-3.745953 4.313823-4.403487 3.556663-4.403487C3.058531-4.403487 2.580324-4.044832 2.251557-3.656289C2.15193-4.194271 1.723537-4.403487 1.354919-4.403487C.896638-4.403487 .707347-4.014944 .617684-3.835616C.438356-3.496887 .308842-2.899128 .308842-2.86924C.308842-2.769614 .408468-2.769614 .428394-2.769614C.52802-2.769614 .537983-2.779577 .597758-2.998755C.767123-3.706102 .966376-4.184309 1.325031-4.184309C1.494396-4.184309 1.633873-4.104608 1.633873-3.726027C1.633873-3.496887 1.603985-3.387298 1.564134-3.217933L.448319 1.215442ZM2.201743-3.108344C2.271482-3.377335 2.540473-3.656289 2.719801-3.805729C3.068493-4.11457 3.35741-4.184309 3.526775-4.184309C3.92528-4.184309 4.164384-3.835616 4.164384-3.247821S3.835616-1.514321 3.656289-1.135741C3.317559-.438356 2.839352-.109589 2.470735-.109589C1.8132-.109589 1.683686-.936488 1.683686-.996264C1.683686-1.016189 1.683686-1.036115 1.713574-1.155666L2.201743-3.108344Z'/>
<path id='g2-120' d='M3.327522-3.008717C3.387298-3.267746 3.616438-4.184309 4.313823-4.184309C4.363636-4.184309 4.60274-4.184309 4.811955-4.054795C4.533001-4.004981 4.333748-3.755915 4.333748-3.516812C4.333748-3.35741 4.443337-3.16812 4.712329-3.16812C4.931507-3.16812 5.250311-3.347447 5.250311-3.745953C5.250311-4.26401 4.662516-4.403487 4.323786-4.403487C3.745953-4.403487 3.39726-3.875467 3.277709-3.646326C3.028643-4.303861 2.49066-4.403487 2.201743-4.403487C1.165629-4.403487 .597758-3.118306 .597758-2.86924C.597758-2.769614 .697385-2.769614 .71731-2.769614C.797011-2.769614 .826899-2.789539 .846824-2.879203C1.185554-3.935243 1.843088-4.184309 2.181818-4.184309C2.371108-4.184309 2.719801-4.094645 2.719801-3.516812C2.719801-3.20797 2.550436-2.540473 2.181818-1.145704C2.022416-.52802 1.673724-.109589 1.235367-.109589C1.175592-.109589 .946451-.109589 .737235-.239103C.986301-.288917 1.205479-.498132 1.205479-.777086C1.205479-1.046077 .986301-1.125778 .836862-1.125778C.537983-1.125778 .288917-.86675 .288917-.547945C.288917-.089664 .787049 .109589 1.225405 .109589C1.882939 .109589 2.241594-.587796 2.271482-.647572C2.391034-.278954 2.749689 .109589 3.347447 .109589C4.373599 .109589 4.941469-1.175592 4.941469-1.424658C4.941469-1.524284 4.851806-1.524284 4.821918-1.524284C4.732254-1.524284 4.712329-1.484433 4.692403-1.414695C4.363636-.348692 3.686177-.109589 3.367372-.109589C2.978829-.109589 2.819427-.428394 2.819427-.767123C2.819427-.986301 2.879203-1.205479 2.988792-1.643836L3.327522-3.008717Z'/>
</defs>
<g id='page1' transform='matrix(2.331429 0 0 2.331429 0 0)'>
<rect x='174.7103' y='18.340538' width='322.770203' height='24.108904' fill='#242424'/>
<g fill='#f6f3e8'>
<use x='174.7103' y='31.500708' xlink:href='#g2-112'/>
<use x='179.722764' y='31.500708' xlink:href='#g5-40'/>
<use x='183.597138' y='31.500708' xlink:href='#g2-120'/>
<use x='189.29107' y='31.500708' xlink:href='#g1-106'/>
<use x='192.058479' y='31.500708' xlink:href='#g2-67'/>
<use x='199.178994' y='32.995089' xlink:href='#g3-107'/>
<use x='204.080778' y='31.500708' xlink:href='#g5-41'/>
<use x='210.722484' y='31.500708' xlink:href='#g5-61'/>
<use x='243.226681' y='24.760906' xlink:href='#g5-49'/>
</g>
<rect x='222.434078' y='28.810798' height='.398484' width='46.566525' fill='#f6f3e8'/>
<g fill='#f6f3e8'>
<use x='222.434078' y='39.958782' xlink:href='#g5-40'/>
<use x='226.308452' y='39.958782' xlink:href='#g5-50'/>
<use x='231.289791' y='39.958782' xlink:href='#g2-25'/>
<use x='237.326208' y='39.958782' xlink:href='#g5-41'/>
<use x='242.396095' y='33.808642' xlink:href='#g4-78'/>
</g>
<rect x='242.396095' y='34.573094' height='.338711' width='5.90153' fill='#f6f3e8'/>
<g fill='#f6f3e8'>
<use x='243.651808' y='38.886403' xlink:href='#g6-50'/>
<use x='249.99127' y='39.958782' xlink:href='#g1-106'/>
<use x='252.758679' y='39.958782' xlink:href='#g5-6'/>
<use x='259.953939' y='39.958782' xlink:href='#g1-106'/>
<use x='263.916861' y='33.808642' xlink:href='#g6-49'/>
</g>
<rect x='263.916861' y='34.573094' height='.338711' width='3.390119' fill='#f6f3e8'/>
<g fill='#f6f3e8'>
<use x='263.916861' y='38.886403' xlink:href='#g6-50'/>
<use x='270.196117' y='31.500708' xlink:href='#g2-101'/>
<use x='274.834988' y='31.500708' xlink:href='#g2-120'/>
<use x='280.528921' y='31.500708' xlink:href='#g2-112'/>
<use x='285.541385' y='31.500708' xlink:href='#g5-40'/>
<use x='289.415759' y='31.500708' xlink:href='#g5-41'/>
<use x='484.75357' y='31.500708' xlink:href='#g0-40'/>
<use x='488.626984' y='31.500708' xlink:href='#g0-49'/>
<use x='493.607088' y='31.500708' xlink:href='#g0-41'/>
</g>
</g>
</svg>