<?xml version='1.0' encoding='UTF-8'?>
<!-- This file was generated by dvisvgm 2.8.1 -->
<svg version='1.1' xmlns='http://www.w3.org/2000/svg' xmlns:xlink='http://www.w3.org/1999/xlink' width='1013.59335pt' height='69.68226pt' viewBox='146.246906 42.759632 1013.59335 69.68226'>
<defs>
<path id='g4-105' d='M1.972603-3.108344C1.972603-3.227895 1.882939-3.32254 1.753425-3.32254C1.613948-3.32254 1.449564-3.188045 1.449564-3.023661C1.449564-2.884184 1.559153-2.809465 1.663761-2.809465C1.828144-2.809465 1.972603-2.958904 1.972603-3.108344ZM2.206725-.71731C2.206725-.787049 2.122042-.787049 2.102117-.787049C2.017435-.787049 2.012453-.767123 1.982565-.672478C1.897883-.398506 1.673724-.11457 1.424658-.11457C1.310087-.11457 1.275218-.194271 1.275218-.303861C1.275218-.408468 1.300125-.463263 1.339975-.557908C1.379826-.657534 1.419676-.757161 1.444583-.826899C1.464508-.871731 1.65878-1.334994 1.728518-1.514321C1.768369-1.613948 1.798257-1.678705 1.798257-1.763387C1.798257-2.002491 1.569116-2.201743 1.255293-2.201743C.732254-2.201743 .4533-1.564134 .4533-1.429639C.4533-1.3599 .533001-1.3599 .557908-1.3599C.64259-1.3599 .647572-1.384807 .672478-1.459527C.782067-1.8132 1.021171-2.032379 1.235367-2.032379C1.330012-2.032379 1.384807-1.977584 1.384807-1.843088C1.384807-1.823163 1.384807-1.758406 1.354919-1.663761C1.32005-1.574097 1.09589-1.041096 1.026152-.871731C.991283-.787049 .991283-.777086 .916563-.607721C.891656-.537983 .861768-.468244 .861768-.383562C.861768-.124533 1.105853 .054795 1.404732 .054795C1.927771 .054795 2.206725-.592777 2.206725-.71731Z'/>
<path id='g0-40' d='M3.158157-7.47198C3.01868-7.422167 2.839352-7.222914 2.719801-7.103362C1.494396-5.877958 .996264-4.184309 .996264-2.500623C.996264-.697385 1.58406 1.225405 3.048568 2.400996C3.098381 2.430884 3.158157 2.480697 3.217933 2.480697S3.307597 2.420922 3.307597 2.381071C3.307597 2.271482 3.038605 2.062267 2.929016 1.932752C1.902864 .707347 1.58406-.926526 1.58406-2.49066C1.58406-4.134496 1.912827-5.937733 3.148194-7.173101C3.20797-7.232877 3.307597-7.302615 3.307597-7.382316C3.307597-7.442092 3.257783-7.481943 3.198007-7.481943C3.188045-7.481943 3.16812-7.47198 3.158157-7.47198Z'/>
<path id='g0-41' d='M.617684-7.47198C.577833-7.452055 .557908-7.422167 .557908-7.392279C.557908-7.272727 .787049-7.103362 .896638-6.983811C1.96264-5.748443 2.281445-4.064757 2.281445-2.49066C2.281445-.886675 1.952677 .936488 .757161 2.132005C.687422 2.201743 .557908 2.30137 .557908 2.381071C.557908 2.430884 .607721 2.480697 .667497 2.480697H.67746C.797011 2.460772 .996264 2.251557 1.115816 2.132005C2.371108 .876712 2.86924-.816936 2.86924-2.510585C2.86924-4.343711 2.271482-6.166874 .816936-7.402242C.767123-7.43213 .71731-7.481943 .657534-7.481943C.647572-7.481943 .637609-7.481943 .617684-7.47198Z'/>
<path id='g0-49' d='M.896638-6.007472V-5.69863C1.325031-5.69863 1.803238-5.748443 2.191781-5.957659V-.757161C2.191781-.368618 1.8132-.308842 1.424658-.308842C1.255293-.308842 1.085928-.318804 .946451-.318804V-.009963H4.184309V-.318804C4.014944-.318804 3.845579-.308842 3.686177-.308842C3.287671-.308842 2.938979-.368618 2.938979-.747198V-6.485679C2.938979-6.575342 2.909091-6.645081 2.799502-6.645081C2.660025-6.645081 2.49066-6.455791 2.381071-6.37609C1.942715-6.087173 1.404732-6.007472 .896638-6.007472Z'/>
<path id='g0-105' d='M.368618-4.293898V-3.985056H.557908C.846824-3.985056 1.105853-3.945205 1.105853-3.486924V-.727273C1.105853-.37858 .926526-.318804 .328767-.318804V-.009963H2.470735V-.318804H2.271482C2.012453-.318804 1.77335-.348692 1.77335-.667497V-4.403487L.368618-4.293898ZM1.205479-6.665006C.956413-6.635118 .757161-6.41594 .757161-6.146949C.757161-5.858032 1.006227-5.618929 1.285181-5.618929C1.554172-5.618929 1.8132-5.838107 1.8132-6.146949C1.8132-6.435866 1.564134-6.674969 1.285181-6.674969C1.255293-6.674969 1.235367-6.665006 1.205479-6.665006Z'/>
<path id='g0-115' d='M1.753425-4.463263C1.384807-4.423412 .996264-4.353674 .707347-4.104608C.468244-3.895392 .328767-3.556663 .328767-3.237858C.328767-1.534247 3.098381-2.500623 3.098381-1.006227C3.098381-.398506 2.550436-.119552 2.002491-.119552C1.24533-.119552 .737235-.657534 .597758-1.514321C.577833-1.603985 .56787-1.693649 .448319-1.693649C.368618-1.693649 .328767-1.633873 .328767-1.564134V.009963C.33873 .059776 .368618 .089664 .418431 .099626H.438356C.597758 .099626 .757161-.268991 .876712-.298879H.886675C.966376-.298879 1.235367-.049813 1.444583 .019925C1.613948 .079701 1.793275 .099626 1.972603 .099626C2.799502 .099626 3.58655-.33873 3.58655-1.255293C3.58655-1.912827 3.108344-2.450809 2.450809-2.620174C1.833126-2.789539 .816936-2.789539 .816936-3.516812C.816936-4.124533 1.484433-4.273973 1.92279-4.273973C2.410959-4.273973 3.088418-4.004981 3.088418-3.148194C3.088418-3.058531 3.098381-2.978829 3.20797-2.978829C3.307597-2.978829 3.347447-3.058531 3.347447-3.158157C3.347447-3.20797 3.337484-3.257783 3.337484-3.297634V-4.323786C3.337484-4.383562 3.307597-4.463263 3.227895-4.463263C3.068493-4.463263 2.968867-4.214197 2.859278-4.214197H2.849315C2.769614-4.214197 2.610212-4.343711 2.49066-4.383562C2.311333-4.443337 2.11208-4.473225 1.92279-4.473225C1.863014-4.473225 1.8132-4.463263 1.753425-4.463263Z'/>
<path id='g6-40' d='M2.475716-5.230386C1.150685-4.29589 .801993-2.817435 .801993-1.750436C.801993-.767123 1.094894 .760149 2.475716 1.736488C2.531507 1.736488 2.615193 1.736488 2.615193 1.652802C2.615193 1.610959 2.594271 1.597011 2.545455 1.548194C1.617933 .711333 1.276214-.474222 1.276214-1.743462C1.276214-3.626401 1.994521-4.546949 2.566376-5.063014C2.594271-5.090909 2.615193-5.111831 2.615193-5.1467C2.615193-5.230386 2.531507-5.230386 2.475716-5.230386Z'/>
<path id='g6-49' d='M2.336239-4.435367C2.336239-4.623661 2.322291-4.630635 2.127024-4.630635C1.680697-4.191283 1.046077-4.184309 .760149-4.184309V-3.93325C.927522-3.93325 1.387796-3.93325 1.771357-4.128518V-.571856C1.771357-.341719 1.771357-.251059 1.073973-.251059H.808966V0C.934496-.006974 1.792279-.027895 2.050311-.027895C2.266501-.027895 3.145205-.006974 3.29863 0V-.251059H3.033624C2.336239-.251059 2.336239-.341719 2.336239-.571856V-4.435367Z'/>
<path id='g6-50' d='M3.521793-1.26924H3.284682C3.263761-1.115816 3.194022-.704359 3.103362-.63462C3.047572-.592777 2.510585-.592777 2.412951-.592777H1.129763C1.862017-1.241345 2.106102-1.436613 2.524533-1.764384C3.040598-2.175841 3.521793-2.608219 3.521793-3.270735C3.521793-4.11457 2.782565-4.630635 1.889913-4.630635C1.025156-4.630635 .439352-4.02391 .439352-3.382316C.439352-3.02665 .739228-2.991781 .808966-2.991781C.976339-2.991781 1.17858-3.110336 1.17858-3.361395C1.17858-3.486924 1.129763-3.731009 .767123-3.731009C.983313-4.226152 1.457534-4.379577 1.785305-4.379577C2.48269-4.379577 2.84533-3.835616 2.84533-3.270735C2.84533-2.66401 2.412951-2.182814 2.189788-1.931756L.509091-.27198C.439352-.209215 .439352-.195268 .439352 0H3.312578L3.521793-1.26924Z'/>
<path id='g1-0' d='M6.56538-2.291407C6.734745-2.291407 6.914072-2.291407 6.914072-2.49066S6.734745-2.689913 6.56538-2.689913H1.175592C1.006227-2.689913 .826899-2.689913 .826899-2.49066S1.006227-2.291407 1.175592-2.291407H6.56538Z'/>
<path id='g1-106' d='M1.58406-7.113325C1.58406-7.292653 1.58406-7.47198 1.384807-7.47198S1.185554-7.292653 1.185554-7.113325V2.132005C1.185554 2.311333 1.185554 2.49066 1.384807 2.49066S1.58406 2.311333 1.58406 2.132005V-7.113325Z'/>
<path id='g7-40' d='M4.493151 18.201743C4.493151 17.105853 3.73599 15.422167 2.002491 14.545455C3.078456 13.967621 4.363636 12.801993 4.483188 10.938979L4.493151 10.879203V3.975093C4.493151 3.158157 4.493151 2.978829 4.572852 2.600249C4.752179 1.803238 5.230386 .816936 6.495641 .069738C6.575342 .019925 6.585305 .009963 6.585305-.169365C6.585305-.388543 6.575342-.398506 6.356164-.398506C6.176837-.398506 6.156912-.398506 5.88792-.239103C3.656289 1.026152 3.526775 2.879203 3.526775 3.227895V10.311333C3.526775 11.028643 3.526775 11.835616 3.008717 12.752179C2.550436 13.569116 2.012453 13.977584 1.58406 14.266501C1.444583 14.356164 1.43462 14.366127 1.43462 14.535492C1.43462 14.714819 1.444583 14.724782 1.524284 14.774595C2.371108 15.332503 3.277709 16.219178 3.496887 17.843088C3.526775 18.062267 3.526775 18.082192 3.526775 18.201743V25.853051C3.526775 26.660025 4.024907 28.333748 5.947696 29.349938C6.176837 29.479452 6.196762 29.479452 6.356164 29.479452C6.575342 29.479452 6.585305 29.469489 6.585305 29.250311C6.585305 29.070984 6.575342 29.061021 6.535492 29.041096C6.107098 28.772105 4.801993 27.985056 4.533001 26.251557C4.493151 25.992528 4.493151 25.972603 4.493151 25.843088V18.201743Z'/>
<path id='g5-40' d='M3.297634 2.391034C3.297634 2.361146 3.297634 2.34122 3.128269 2.171856C1.882939 .916563 1.564134-.966376 1.564134-2.49066C1.564134-4.224159 1.942715-5.957659 3.16812-7.202989C3.297634-7.32254 3.297634-7.342466 3.297634-7.372354C3.297634-7.442092 3.257783-7.47198 3.198007-7.47198C3.098381-7.47198 2.201743-6.794521 1.613948-5.529265C1.105853-4.433375 .986301-3.327522 .986301-2.49066C.986301-1.713574 1.09589-.508095 1.643836 .617684C2.241594 1.843088 3.098381 2.49066 3.198007 2.49066C3.257783 2.49066 3.297634 2.460772 3.297634 2.391034Z'/>
<path id='g5-41' d='M2.879203-2.49066C2.879203-3.267746 2.769614-4.473225 2.221669-5.599004C1.62391-6.824408 .767123-7.47198 .667497-7.47198C.607721-7.47198 .56787-7.43213 .56787-7.372354C.56787-7.342466 .56787-7.32254 .757161-7.143213C1.733499-6.156912 2.30137-4.572852 2.30137-2.49066C2.30137-.787049 1.932752 .966376 .697385 2.221669C.56787 2.34122 .56787 2.361146 .56787 2.391034C.56787 2.450809 .607721 2.49066 .667497 2.49066C.767123 2.49066 1.663761 1.8132 2.251557 .547945C2.759651-.547945 2.879203-1.653798 2.879203-2.49066Z'/>
<path id='g5-49' d='M2.929016-6.37609C2.929016-6.615193 2.929016-6.635118 2.699875-6.635118C2.082192-5.997509 1.205479-5.997509 .886675-5.997509V-5.688667C1.085928-5.688667 1.673724-5.688667 2.191781-5.947696V-.787049C2.191781-.428394 2.161893-.308842 1.265255-.308842H.946451V0C1.295143-.029888 2.161893-.029888 2.560399-.029888S3.825654-.029888 4.174346 0V-.308842H3.855542C2.958904-.308842 2.929016-.418431 2.929016-.787049V-6.37609Z'/>
<path id='g5-61' d='M6.844334-3.257783C6.993773-3.257783 7.183064-3.257783 7.183064-3.457036S6.993773-3.656289 6.854296-3.656289H.886675C.747198-3.656289 .557908-3.656289 .557908-3.457036S.747198-3.257783 .896638-3.257783H6.844334ZM6.854296-1.325031C6.993773-1.325031 7.183064-1.325031 7.183064-1.524284S6.993773-1.723537 6.844334-1.723537H.896638C.747198-1.723537 .557908-1.723537 .557908-1.524284S.747198-1.325031 .886675-1.325031H6.854296Z'/>
<path id='g3-105' d='M2.259527-4.358655C2.259527-4.470237 2.175841-4.623661 1.980573-4.623661C1.792279-4.623661 1.590037-4.442341 1.590037-4.2401C1.590037-4.121544 1.680697-3.975093 1.868991-3.975093C2.071233-3.975093 2.259527-4.170361 2.259527-4.358655ZM.836862-.81594C.808966-.72528 .774097-.641594 .774097-.523039C.774097-.195268 1.053051 .069738 1.436613 .069738C2.133998 .069738 2.440847-.892653 2.440847-.99726C2.440847-1.08792 2.350187-1.08792 2.329265-1.08792C2.231631-1.08792 2.224658-1.046077 2.196762-.969365C2.036364-.411457 1.729514-.125529 1.457534-.125529C1.318057-.125529 1.283188-.216189 1.283188-.369614C1.283188-.530012 1.332005-.662516 1.39477-.81594C1.464508-1.004234 1.54122-1.192528 1.617933-1.373848C1.680697-1.54122 1.931756-2.175841 1.959651-2.259527C1.980573-2.329265 2.001494-2.412951 2.001494-2.48269C2.001494-2.810461 1.72254-3.075467 1.338979-3.075467C.648568-3.075467 .327771-2.127024 .327771-2.008468C.327771-1.917808 .425405-1.917808 .446326-1.917808C.54396-1.917808 .550934-1.952677 .571856-2.02939C.753176-2.629141 1.060025-2.880199 1.318057-2.880199C1.429639-2.880199 1.492403-2.824408 1.492403-2.636115C1.492403-2.475716 1.45056-2.371108 1.276214-1.93873L.836862-.81594Z'/>
<path id='g3-116' d='M1.715567-2.75467H2.426899C2.559402-2.75467 2.650062-2.75467 2.650062-2.908095C2.650062-3.005729 2.559402-3.005729 2.440847-3.005729H1.778331L2.036364-4.037858C2.043337-4.072727 2.057285-4.107597 2.057285-4.135492C2.057285-4.261021 1.959651-4.358655 1.820174-4.358655C1.645828-4.358655 1.54122-4.2401 1.492403-4.05878C1.443587-3.884433 1.534247-4.219178 1.227397-3.005729H.516065C.383562-3.005729 .292902-3.005729 .292902-2.852304C.292902-2.75467 .376588-2.75467 .502117-2.75467H1.164633L.753176-1.108842C.711333-.934496 .648568-.683437 .648568-.592777C.648568-.18132 .99726 .069738 1.39477 .069738C2.168867 .069738 2.608219-.9066 2.608219-.99726S2.517559-1.08792 2.496638-1.08792C2.412951-1.08792 2.405978-1.073973 2.350187-.955417C2.154919-.516065 1.799253-.125529 1.415691-.125529C1.26924-.125529 1.171606-.216189 1.171606-.467248C1.171606-.536986 1.199502-.683437 1.21345-.753176L1.715567-2.75467Z'/>
<path id='g2-18' d='M4.533001-4.98132C4.533001-5.638854 4.353674-7.023661 3.337484-7.023661C1.952677-7.023661 .418431-4.214197 .418431-1.932752C.418431-.996264 .707347 .109589 1.613948 .109589C3.01868 .109589 4.533001-2.749689 4.533001-4.98132ZM1.474471-3.616438C1.643836-4.254047 1.843088-5.051059 2.241594-5.758406C2.510585-6.246575 2.879203-6.804483 3.327522-6.804483C3.815691-6.804483 3.875467-6.166874 3.875467-5.599004C3.875467-5.110834 3.795766-4.60274 3.556663-3.616438H1.474471ZM3.466999-3.297634C3.35741-2.839352 3.148194-1.992528 2.769614-1.275218C2.420922-.597758 2.042341-.109589 1.613948-.109589C1.285181-.109589 1.075965-.398506 1.075965-1.325031C1.075965-1.743462 1.135741-2.321295 1.39477-3.297634H3.466999Z'/>
<path id='g2-59' d='M2.022416-.009963C2.022416-.667497 1.77335-1.05604 1.384807-1.05604C1.05604-1.05604 .856787-.806974 .856787-.52802C.856787-.259029 1.05604 0 1.384807 0C1.504359 0 1.633873-.039851 1.733499-.129514C1.763387-.14944 1.77335-.159402 1.783313-.159402S1.803238-.14944 1.803238-.009963C1.803238 .727273 1.454545 1.325031 1.125778 1.653798C1.016189 1.763387 1.016189 1.783313 1.016189 1.8132C1.016189 1.882939 1.066002 1.92279 1.115816 1.92279C1.225405 1.92279 2.022416 1.155666 2.022416-.009963Z'/>
<path id='g2-67' d='M7.571606-6.924035C7.571606-6.953923 7.551681-7.023661 7.462017-7.023661C7.43213-7.023661 7.422167-7.013699 7.312578-6.90411L6.615193-6.136986C6.525529-6.276463 6.067248-7.023661 4.961395-7.023661C2.739726-7.023661 .498132-4.821918 .498132-2.510585C.498132-.86675 1.673724 .219178 3.198007 .219178C4.064757 .219178 4.821918-.179328 5.349938-.637609C6.276463-1.454545 6.445828-2.361146 6.445828-2.391034C6.445828-2.49066 6.346202-2.49066 6.326276-2.49066C6.266501-2.49066 6.216687-2.470735 6.196762-2.391034C6.107098-2.102117 5.877958-1.39477 5.190535-.816936C4.503113-.259029 3.875467-.089664 3.35741-.089664C2.460772-.089664 1.404732-.607721 1.404732-2.161893C1.404732-2.729763 1.613948-4.343711 2.610212-5.50934C3.217933-6.216687 4.154421-6.714819 5.041096-6.714819C6.057285-6.714819 6.645081-5.947696 6.645081-4.79203C6.645081-4.393524 6.615193-4.383562 6.615193-4.283935S6.724782-4.184309 6.764633-4.184309C6.894147-4.184309 6.894147-4.204234 6.94396-4.383562L7.571606-6.924035Z'/>
<path id='g2-76' d='M3.726027-6.027397C3.815691-6.386052 3.845579-6.495641 4.782067-6.495641C5.080946-6.495641 5.160648-6.495641 5.160648-6.684932C5.160648-6.804483 5.051059-6.804483 5.001245-6.804483C4.672478-6.804483 3.855542-6.774595 3.526775-6.774595C3.227895-6.774595 2.500623-6.804483 2.201743-6.804483C2.132005-6.804483 2.012453-6.804483 2.012453-6.60523C2.012453-6.495641 2.102117-6.495641 2.291407-6.495641C2.311333-6.495641 2.500623-6.495641 2.669988-6.475716C2.849315-6.455791 2.938979-6.445828 2.938979-6.316314C2.938979-6.276463 2.929016-6.246575 2.899128-6.127024L1.564134-.777086C1.464508-.388543 1.444583-.308842 .657534-.308842C.488169-.308842 .388543-.308842 .388543-.109589C.388543 0 .478207 0 .657534 0H5.270237C5.50934 0 5.519303 0 5.579078-.169365L6.366127-2.321295C6.405978-2.430884 6.405978-2.450809 6.405978-2.460772C6.405978-2.500623 6.37609-2.570361 6.286426-2.570361S6.1868-2.520548 6.117061-2.361146C5.778331-1.444583 5.339975-.308842 3.616438-.308842H2.67995C2.540473-.308842 2.520548-.308842 2.460772-.318804C2.361146-.328767 2.331258-.33873 2.331258-.418431C2.331258-.448319 2.331258-.468244 2.381071-.647572L3.726027-6.027397Z'/>
<path id='g2-112' d='M.448319 1.215442C.368618 1.554172 .348692 1.62391-.089664 1.62391C-.209215 1.62391-.318804 1.62391-.318804 1.8132C-.318804 1.892902-.268991 1.932752-.18929 1.932752C.079701 1.932752 .368618 1.902864 .647572 1.902864C.976339 1.902864 1.315068 1.932752 1.633873 1.932752C1.683686 1.932752 1.8132 1.932752 1.8132 1.733499C1.8132 1.62391 1.713574 1.62391 1.574097 1.62391C1.075965 1.62391 1.075965 1.554172 1.075965 1.464508C1.075965 1.344956 1.494396-.278954 1.564134-.52802C1.693649-.239103 1.972603 .109589 2.480697 .109589C3.636364 .109589 4.881694-1.344956 4.881694-2.809465C4.881694-3.745953 4.313823-4.403487 3.556663-4.403487C3.058531-4.403487 2.580324-4.044832 2.251557-3.656289C2.15193-4.194271 1.723537-4.403487 1.354919-4.403487C.896638-4.403487 .707347-4.014944 .617684-3.835616C.438356-3.496887 .308842-2.899128 .308842-2.86924C.308842-2.769614 .408468-2.769614 .428394-2.769614C.52802-2.769614 .537983-2.779577 .597758-2.998755C.767123-3.706102 .966376-4.184309 1.325031-4.184309C1.494396-4.184309 1.633873-4.104608 1.633873-3.726027C1.633873-3.496887 1.603985-3.387298 1.564134-3.217933L.448319 1.215442ZM2.201743-3.108344C2.271482-3.377335 2.540473-3.656289 2.719801-3.805729C3.068493-4.11457 3.35741-4.184309 3.526775-4.184309C3.92528-4.184309 4.164384-3.835616 4.164384-3.247821S3.835616-1.514321 3.656289-1.135741C3.317559-.438356 2.839352-.109589 2.470735-.109589C1.8132-.109589 1.683686-.936488 1.683686-.996264C1.683686-1.016189 1.683686-1.036115 1.713574-1.155666L2.201743-3.108344Z'/>
<path id='g2-116' d='M2.052304-3.985056H2.988792C3.188045-3.985056 3.287671-3.985056 3.287671-4.184309C3.287671-4.293898 3.188045-4.293898 3.008717-4.293898H2.132005C2.49066-5.708593 2.540473-5.907846 2.540473-5.967621C2.540473-6.136986 2.420922-6.236613 2.251557-6.236613C2.221669-6.236613 1.942715-6.22665 1.853051-5.877958L1.464508-4.293898H.52802C.328767-4.293898 .229141-4.293898 .229141-4.104608C.229141-3.985056 .308842-3.985056 .508095-3.985056H1.384807C.667497-1.155666 .627646-.986301 .627646-.806974C.627646-.268991 1.006227 .109589 1.544209 .109589C2.560399 .109589 3.128269-1.344956 3.128269-1.424658C3.128269-1.524284 3.048568-1.524284 3.008717-1.524284C2.919054-1.524284 2.909091-1.494396 2.859278-1.384807C2.430884-.348692 1.902864-.109589 1.564134-.109589C1.354919-.109589 1.255293-.239103 1.255293-.56787C1.255293-.806974 1.275218-.876712 1.315068-1.046077L2.052304-3.985056Z'/>
<path id='g2-120' d='M3.327522-3.008717C3.387298-3.267746 3.616438-4.184309 4.313823-4.184309C4.363636-4.184309 4.60274-4.184309 4.811955-4.054795C4.533001-4.004981 4.333748-3.755915 4.333748-3.516812C4.333748-3.35741 4.443337-3.16812 4.712329-3.16812C4.931507-3.16812 5.250311-3.347447 5.250311-3.745953C5.250311-4.26401 4.662516-4.403487 4.323786-4.403487C3.745953-4.403487 3.39726-3.875467 3.277709-3.646326C3.028643-4.303861 2.49066-4.403487 2.201743-4.403487C1.165629-4.403487 .597758-3.118306 .597758-2.86924C.597758-2.769614 .697385-2.769614 .71731-2.769614C.797011-2.769614 .826899-2.789539 .846824-2.879203C1.185554-3.935243 1.843088-4.184309 2.181818-4.184309C2.371108-4.184309 2.719801-4.094645 2.719801-3.516812C2.719801-3.20797 2.550436-2.540473 2.181818-1.145704C2.022416-.52802 1.673724-.109589 1.235367-.109589C1.175592-.109589 .946451-.109589 .737235-.239103C.986301-.288917 1.205479-.498132 1.205479-.777086C1.205479-1.046077 .986301-1.125778 .836862-1.125778C.537983-1.125778 .288917-.86675 .288917-.547945C.288917-.089664 .787049 .109589 1.225405 .109589C1.882939 .109589 2.241594-.587796 2.271482-.647572C2.391034-.278954 2.749689 .109589 3.347447 .109589C4.373599 .109589 4.941469-1.175592 4.941469-1.424658C4.941469-1.524284 4.851806-1.524284 4.821918-1.524284C4.732254-1.524284 4.712329-1.484433 4.692403-1.414695C4.363636-.348692 3.686177-.109589 3.367372-.109589C2.978829-.109589 2.819427-.428394 2.819427-.767123C2.819427-.986301 2.879203-1.205479 2.988792-1.643836L3.327522-3.008717Z'/>
</defs>
<g id='page1' transform='matrix(2.331429 0 0 2.331429 0 0)'>
<rect x='62.728452' y='18.340529' width='434.75205' height='29.888224' fill='#242424'/>
<g fill='#f6f3e8'>
<use x='62.728452' y='35.775297' xlink:href='#g2-76'/>
<use x='69.508599' y='37.269678' xlink:href='#g3-105'/>
<use x='72.825446' y='35.775297' xlink:href='#g5-40'/>
<use x='76.69982' y='35.775297' xlink:href='#g2-18'/>
<use x='81.653472' y='35.775297' xlink:href='#g5-41'/>
<use x='88.295179' y='35.775297' xlink:href='#g5-61'/>
<use x='98.811259' y='35.775297' xlink:href='#g2-112'/>
<use x='103.823723' y='35.775297' xlink:href='#g5-40'/>
<use x='107.698097' y='35.775297' xlink:href='#g2-120'/>
<use x='113.392029' y='37.269678' xlink:href='#g3-105'/>
<use x='116.708876' y='35.775297' xlink:href='#g2-59'/>
<use x='121.136684' y='35.775297' xlink:href='#g2-116'/>
<use x='124.734318' y='37.269678' xlink:href='#g3-105'/>
<use x='128.051165' y='35.775297' xlink:href='#g1-106'/>
<use x='130.818573' y='35.775297' xlink:href='#g2-18'/>
<use x='135.772226' y='35.775297' xlink:href='#g5-41'/>
<use x='142.413932' y='35.775297' xlink:href='#g5-61'/>
<use x='152.930012' y='18.739024' xlink:href='#g7-40'/>
<use x='160.955505' y='28.980754' xlink:href='#g2-112'/>
<use x='165.967969' y='28.980754' xlink:href='#g5-40'/>
<use x='169.842343' y='28.980754' xlink:href='#g2-120'/>
<use x='175.536275' y='30.475135' xlink:href='#g3-105'/>
<use x='178.853122' y='28.980754' xlink:href='#g2-59'/>
<use x='183.28093' y='28.980754' xlink:href='#g2-67'/>
<use x='190.401444' y='30.475135' xlink:href='#g6-49'/>
<use x='194.870814' y='28.980754' xlink:href='#g1-106'/>
<use x='197.638223' y='28.980754' xlink:href='#g2-18'/>
<use x='202.591875' y='28.980754' xlink:href='#g5-41'/>
<use x='209.786318' y='28.980754' xlink:href='#g0-115'/>
<use x='213.715067' y='28.980754' xlink:href='#g0-105'/>
<use x='219.801861' y='28.980754' xlink:href='#g2-116'/>
<use x='223.399496' y='30.475135' xlink:href='#g3-105'/>
<use x='229.483675' y='28.980754' xlink:href='#g5-61'/>
<use x='239.999754' y='28.980754' xlink:href='#g2-67'/>
<use x='247.120269' y='30.475135' xlink:href='#g6-49'/>
<use x='160.955505' y='43.326904' xlink:href='#g2-112'/>
<use x='165.967969' y='43.326904' xlink:href='#g5-40'/>
<use x='169.842343' y='43.326904' xlink:href='#g2-120'/>
<use x='175.536275' y='44.821285' xlink:href='#g3-105'/>
<use x='178.853122' y='43.326904' xlink:href='#g2-59'/>
<use x='183.28093' y='43.326904' xlink:href='#g2-67'/>
<use x='190.401444' y='44.821285' xlink:href='#g6-50'/>
<use x='194.870814' y='43.326904' xlink:href='#g1-106'/>
<use x='197.638223' y='43.326904' xlink:href='#g2-18'/>
<use x='202.591875' y='43.326904' xlink:href='#g5-41'/>
<use x='209.786318' y='43.326904' xlink:href='#g0-115'/>
<use x='213.715067' y='43.326904' xlink:href='#g0-105'/>
<use x='219.801861' y='43.326904' xlink:href='#g2-116'/>
<use x='223.399496' y='44.821285' xlink:href='#g3-105'/>
<use x='229.483675' y='43.326904' xlink:href='#g5-61'/>
<use x='239.999754' y='43.326904' xlink:href='#g2-67'/>
<use x='247.120269' y='44.821285' xlink:href='#g6-50'/>
<use x='265.512649' y='35.775297' xlink:href='#g5-61'/>
<use x='276.028729' y='35.775297' xlink:href='#g2-112'/>
<use x='281.041194' y='35.775297' xlink:href='#g5-40'/>
<use x='284.915568' y='35.775297' xlink:href='#g2-120'/>
<use x='290.6095' y='37.269678' xlink:href='#g3-105'/>
<use x='293.926346' y='35.775297' xlink:href='#g2-59'/>
<use x='298.354154' y='35.775297' xlink:href='#g2-67'/>
<use x='305.474669' y='37.269678' xlink:href='#g6-49'/>
<use x='309.944039' y='35.775297' xlink:href='#g1-106'/>
<use x='312.711447' y='35.775297' xlink:href='#g2-18'/>
<use x='317.6651' y='35.775297' xlink:href='#g5-41'/>
<use x='321.539474' y='31.661801' xlink:href='#g3-116'/>
<use x='324.549045' y='32.658065' xlink:href='#g4-105'/>
<use x='328.203175' y='35.775297' xlink:href='#g2-112'/>
<use x='333.21564' y='35.775297' xlink:href='#g5-40'/>
<use x='337.090014' y='35.775297' xlink:href='#g2-120'/>
<use x='342.783946' y='37.269678' xlink:href='#g3-105'/>
<use x='346.100792' y='35.775297' xlink:href='#g2-59'/>
<use x='350.5286' y='35.775297' xlink:href='#g2-67'/>
<use x='357.649115' y='37.269678' xlink:href='#g6-50'/>
<use x='362.118485' y='35.775297' xlink:href='#g1-106'/>
<use x='364.885893' y='35.775297' xlink:href='#g2-18'/>
<use x='369.839546' y='35.775297' xlink:href='#g5-41'/>
<use x='373.71392' y='31.661801' xlink:href='#g6-40'/>
<use x='377.325392' y='35.775297' xlink:href='#g5-49'/>
<use x='384.520597' y='35.775297' xlink:href='#g1-0'/>
<use x='394.48321' y='35.775297' xlink:href='#g2-116'/>
<use x='398.080845' y='37.269678' xlink:href='#g3-105'/>
<use x='401.397692' y='35.775297' xlink:href='#g5-41'/>
<use x='484.75357' y='35.775297' xlink:href='#g0-40'/>
<use x='488.626984' y='35.775297' xlink:href='#g0-49'/>
<use x='493.607088' y='35.775297' xlink:href='#g0-41'/>
</g>
</g>
</svg>