<?xml version='1.0' encoding='UTF-8'?>
<!-- This file was generated by dvisvgm 2.8.1 -->
<svg version='1.1' xmlns='http://www.w3.org/2000/svg' xmlns:xlink='http://www.w3.org/1999/xlink' width='865.489893pt' height='67.549368pt' viewBox='114.203451 68.309561 865.489893 67.549368'>
<defs>
<path id='g0-0' d='M6.56538-2.291407C6.734745-2.291407 6.914072-2.291407 6.914072-2.49066S6.734745-2.689913 6.56538-2.689913H1.175592C1.006227-2.689913 .826899-2.689913 .826899-2.49066S1.006227-2.291407 1.175592-2.291407H6.56538Z'/>
<path id='g4-49' d='M2.336239-4.435367C2.336239-4.623661 2.322291-4.630635 2.127024-4.630635C1.680697-4.191283 1.046077-4.184309 .760149-4.184309V-3.93325C.927522-3.93325 1.387796-3.93325 1.771357-4.128518V-.571856C1.771357-.341719 1.771357-.251059 1.073973-.251059H.808966V0C.934496-.006974 1.792279-.027895 2.050311-.027895C2.266501-.027895 3.145205-.006974 3.29863 0V-.251059H3.033624C2.336239-.251059 2.336239-.341719 2.336239-.571856V-4.435367Z'/>
<path id='g4-61' d='M5.355915-2.343213C5.460523-2.343213 5.620922-2.343213 5.620922-2.517559C5.620922-2.684932 5.453549-2.684932 5.362889-2.684932H.746202C.655542-2.684932 .488169-2.684932 .488169-2.517559C.488169-2.343213 .648568-2.343213 .753176-2.343213H5.355915ZM5.362889-.808966C5.453549-.808966 5.620922-.808966 5.620922-.976339C5.620922-1.150685 5.460523-1.150685 5.355915-1.150685H.753176C.648568-1.150685 .488169-1.150685 .488169-.976339C.488169-.808966 .655542-.808966 .746202-.808966H5.362889Z'/>
<path id='g5-88' d='M12.612702 13.947696L13.818182 10.759651H13.569116C13.180573 11.795766 12.124533 12.473225 10.978829 12.772105C10.769614 12.821918 9.793275 13.080946 7.880448 13.080946H1.872976L6.94396 7.13325C7.013699 7.053549 7.033624 7.023661 7.033624 6.973848C7.033624 6.953923 7.033624 6.924035 6.963885 6.824408L2.321295 .478207H7.780822C9.115816 .478207 10.022416 .617684 10.11208 .637609C10.650062 .71731 11.516812 .886675 12.303861 1.384807C12.552927 1.544209 13.230386 1.992528 13.569116 2.799502H13.818182L12.612702 0H.836862C.607721 0 .597758 .009963 .56787 .069738C.557908 .099626 .557908 .288917 .557908 .398506L5.828144 7.611457L.667497 13.65878C.56787 13.778331 .56787 13.828144 .56787 13.838107C.56787 13.947696 .657534 13.947696 .836862 13.947696H12.612702Z'/>
<path id='g2-78' d='M5.816189-4.002989C5.885928-4.267995 5.997509-4.498132 6.555417-4.51208C6.590286-4.51208 6.694894-4.519054 6.694894-4.665504C6.694894-4.707347 6.660025-4.763138 6.590286-4.763138C6.360149-4.763138 6.102117-4.735243 5.865006-4.735243C5.697634-4.735243 5.293151-4.763138 5.125778-4.763138C5.090909-4.763138 4.986301-4.763138 4.986301-4.609714C4.986301-4.519054 5.076961-4.51208 5.139726-4.51208C5.467497-4.505106 5.586052-4.400498 5.586052-4.226152C5.586052-4.170361 5.579078-4.135492 5.558157-4.05878L4.798007-1.018182L3.02665-4.644583C2.970859-4.763138 2.956912-4.763138 2.789539-4.763138H1.834122C1.701619-4.763138 1.610959-4.763138 1.610959-4.609714C1.610959-4.51208 1.694645-4.51208 1.841096-4.51208S2.140971-4.505106 2.287422-4.47721L1.352927-.746202C1.290162-.481196 1.171606-.27198 .627646-.251059C.578829-.251059 .481196-.244085 .481196-.104608C.481196-.027895 .536986 0 .585803 0C.81594 0 1.073973-.027895 1.311083-.027895C1.478456-.027895 1.882939 0 2.050311 0C2.12005 0 2.189788-.034869 2.189788-.146451C2.189788-.244085 2.106102-.251059 2.02939-.251059C1.590037-.265006 1.590037-.446326 1.590037-.54396C1.590037-.571856 1.590037-.606725 1.617933-.718306L2.510585-4.288917L4.546949-.118555C4.60274-.006974 4.630635 0 4.700374 0C4.811955 0 4.811955-.020922 4.846824-.146451L5.816189-4.002989Z'/>
<path id='g2-105' d='M2.259527-4.358655C2.259527-4.470237 2.175841-4.623661 1.980573-4.623661C1.792279-4.623661 1.590037-4.442341 1.590037-4.2401C1.590037-4.121544 1.680697-3.975093 1.868991-3.975093C2.071233-3.975093 2.259527-4.170361 2.259527-4.358655ZM.836862-.81594C.808966-.72528 .774097-.641594 .774097-.523039C.774097-.195268 1.053051 .069738 1.436613 .069738C2.133998 .069738 2.440847-.892653 2.440847-.99726C2.440847-1.08792 2.350187-1.08792 2.329265-1.08792C2.231631-1.08792 2.224658-1.046077 2.196762-.969365C2.036364-.411457 1.729514-.125529 1.457534-.125529C1.318057-.125529 1.283188-.216189 1.283188-.369614C1.283188-.530012 1.332005-.662516 1.39477-.81594C1.464508-1.004234 1.54122-1.192528 1.617933-1.373848C1.680697-1.54122 1.931756-2.175841 1.959651-2.259527C1.980573-2.329265 2.001494-2.412951 2.001494-2.48269C2.001494-2.810461 1.72254-3.075467 1.338979-3.075467C.648568-3.075467 .327771-2.127024 .327771-2.008468C.327771-1.917808 .425405-1.917808 .446326-1.917808C.54396-1.917808 .550934-1.952677 .571856-2.02939C.753176-2.629141 1.060025-2.880199 1.318057-2.880199C1.429639-2.880199 1.492403-2.824408 1.492403-2.636115C1.492403-2.475716 1.45056-2.371108 1.276214-1.93873L.836862-.81594Z'/>
<path id='g3-40' d='M3.297634 2.391034C3.297634 2.361146 3.297634 2.34122 3.128269 2.171856C1.882939 .916563 1.564134-.966376 1.564134-2.49066C1.564134-4.224159 1.942715-5.957659 3.16812-7.202989C3.297634-7.32254 3.297634-7.342466 3.297634-7.372354C3.297634-7.442092 3.257783-7.47198 3.198007-7.47198C3.098381-7.47198 2.201743-6.794521 1.613948-5.529265C1.105853-4.433375 .986301-3.327522 .986301-2.49066C.986301-1.713574 1.09589-.508095 1.643836 .617684C2.241594 1.843088 3.098381 2.49066 3.198007 2.49066C3.257783 2.49066 3.297634 2.460772 3.297634 2.391034Z'/>
<path id='g3-41' d='M2.879203-2.49066C2.879203-3.267746 2.769614-4.473225 2.221669-5.599004C1.62391-6.824408 .767123-7.47198 .667497-7.47198C.607721-7.47198 .56787-7.43213 .56787-7.372354C.56787-7.342466 .56787-7.32254 .757161-7.143213C1.733499-6.156912 2.30137-4.572852 2.30137-2.49066C2.30137-.787049 1.932752 .966376 .697385 2.221669C.56787 2.34122 .56787 2.361146 .56787 2.391034C.56787 2.450809 .607721 2.49066 .667497 2.49066C.767123 2.49066 1.663761 1.8132 2.251557 .547945C2.759651-.547945 2.879203-1.653798 2.879203-2.49066Z'/>
<path id='g3-43' d='M4.07472-2.291407H6.854296C6.993773-2.291407 7.183064-2.291407 7.183064-2.49066S6.993773-2.689913 6.854296-2.689913H4.07472V-5.479452C4.07472-5.618929 4.07472-5.808219 3.875467-5.808219S3.676214-5.618929 3.676214-5.479452V-2.689913H.886675C.747198-2.689913 .557908-2.689913 .557908-2.49066S.747198-2.291407 .886675-2.291407H3.676214V.498132C3.676214 .637609 3.676214 .826899 3.875467 .826899S4.07472 .637609 4.07472 .498132V-2.291407Z'/>
<path id='g3-49' d='M2.929016-6.37609C2.929016-6.615193 2.929016-6.635118 2.699875-6.635118C2.082192-5.997509 1.205479-5.997509 .886675-5.997509V-5.688667C1.085928-5.688667 1.673724-5.688667 2.191781-5.947696V-.787049C2.191781-.428394 2.161893-.308842 1.265255-.308842H.946451V0C1.295143-.029888 2.161893-.029888 2.560399-.029888S3.825654-.029888 4.174346 0V-.308842H3.855542C2.958904-.308842 2.929016-.418431 2.929016-.787049V-6.37609Z'/>
<path id='g3-61' d='M6.844334-3.257783C6.993773-3.257783 7.183064-3.257783 7.183064-3.457036S6.993773-3.656289 6.854296-3.656289H.886675C.747198-3.656289 .557908-3.656289 .557908-3.457036S.747198-3.257783 .896638-3.257783H6.844334ZM6.854296-1.325031C6.993773-1.325031 7.183064-1.325031 7.183064-1.524284S6.993773-1.723537 6.844334-1.723537H.896638C.747198-1.723537 .557908-1.723537 .557908-1.524284S.747198-1.325031 .886675-1.325031H6.854296Z'/>
<path id='g1-27' d='M5.160648-3.716065C5.290162-3.716065 5.648817-3.716065 5.648817-4.054795C5.648817-4.293898 5.439601-4.293898 5.260274-4.293898H2.988792C1.484433-4.293898 .37858-2.650062 .37858-1.464508C.37858-.587796 .966376 .109589 1.872976 .109589C3.048568 .109589 4.373599-1.09589 4.373599-2.630137C4.373599-2.799502 4.373599-3.277709 4.064757-3.716065H5.160648ZM1.882939-.109589C1.39477-.109589 .996264-.468244 .996264-1.185554C.996264-1.484433 1.115816-2.30137 1.464508-2.889166C1.882939-3.576588 2.480697-3.716065 2.819427-3.716065C3.656289-3.716065 3.73599-3.058531 3.73599-2.749689C3.73599-2.281445 3.536737-1.464508 3.198007-.956413C2.809465-.368618 2.271482-.109589 1.882939-.109589Z'/>
<path id='g1-33' d='M6.027397-3.706102C6.027397-4.154421 5.84807-4.403487 5.628892-4.403487C5.369863-4.403487 5.100872-4.164384 5.100872-3.935243C5.100872-3.835616 5.150685-3.726027 5.250311-3.636364C5.419676-3.486924 5.599004-3.217933 5.599004-2.799502C5.599004-2.400996 5.409714-1.833126 5.100872-1.374844C4.801993-.946451 4.433375-.607721 3.965131-.607721C3.39726-.607721 3.088418-.966376 2.998755-1.504359C3.108344-1.763387 3.337484-2.400996 3.337484-2.67995C3.337484-2.799502 3.287671-2.899128 3.158157-2.899128C3.078456-2.899128 2.968867-2.879203 2.889166-2.729763C2.779577-2.530511 2.660025-1.882939 2.660025-1.524284C2.331258-1.05604 1.932752-.607721 1.305106-.607721C.647572-.607721 .438356-1.195517 .438356-1.753425C.438356-2.998755 1.454545-4.044832 1.454545-4.174346C1.454545-4.283935 1.374844-4.363636 1.265255-4.363636C1.135741-4.363636 1.066002-4.234122 1.006227-4.144458C.498132-3.407223 .119552-2.221669 .119552-1.315068C.119552-.627646 .348692 .109589 1.165629 .109589C1.872976 .109589 2.34122-.388543 2.699875-.936488C2.789539-.358655 3.178082 .109589 3.795766 .109589C4.572852 .109589 5.051059-.498132 5.409714-1.24533C5.648817-1.733499 6.027397-3.088418 6.027397-3.706102Z'/>
<path id='g1-64' d='M4.612702-3.377335C4.513076-3.995019 4.104608-4.552927 3.327522-4.552927C2.719801-4.552927 2.072229-4.393524 1.295143-3.616438C.468244-2.789539 .398506-1.863014 .398506-1.554172C.398506-.936488 .836862 .219178 2.231631 .219178C4.60274 .219178 5.638854-3.128269 5.638854-4.552927C5.638854-6.136986 4.712329-7.13325 3.486924-7.13325C2.042341-7.13325 1.58406-5.838107 1.58406-5.559153C1.58406-5.419676 1.663761-5.210461 1.96264-5.210461C2.291407-5.210461 2.500623-5.50934 2.500623-5.738481C2.500623-6.087173 2.191781-6.087173 2.032379-6.087173C2.470735-6.824408 3.178082-6.884184 3.466999-6.884184C4.194271-6.884184 4.891656-6.366127 4.891656-5.080946C4.891656-4.692403 4.83188-4.184309 4.622665-3.377335H4.612702ZM2.261519-.059776C1.165629-.059776 1.165629-1.085928 1.165629-1.185554C1.165629-1.454545 1.414695-2.849315 1.823163-3.447073C2.221669-4.014944 2.709838-4.333748 3.327522-4.333748C4.41345-4.333748 4.433375-3.217933 4.433375-3.01868C4.433375-2.30137 3.795766-.059776 2.261519-.059776Z'/>
<path id='g1-76' d='M3.726027-6.027397C3.815691-6.386052 3.845579-6.495641 4.782067-6.495641C5.080946-6.495641 5.160648-6.495641 5.160648-6.684932C5.160648-6.804483 5.051059-6.804483 5.001245-6.804483C4.672478-6.804483 3.855542-6.774595 3.526775-6.774595C3.227895-6.774595 2.500623-6.804483 2.201743-6.804483C2.132005-6.804483 2.012453-6.804483 2.012453-6.60523C2.012453-6.495641 2.102117-6.495641 2.291407-6.495641C2.311333-6.495641 2.500623-6.495641 2.669988-6.475716C2.849315-6.455791 2.938979-6.445828 2.938979-6.316314C2.938979-6.276463 2.929016-6.246575 2.899128-6.127024L1.564134-.777086C1.464508-.388543 1.444583-.308842 .657534-.308842C.488169-.308842 .388543-.308842 .388543-.109589C.388543 0 .478207 0 .657534 0H5.270237C5.50934 0 5.519303 0 5.579078-.169365L6.366127-2.321295C6.405978-2.430884 6.405978-2.450809 6.405978-2.460772C6.405978-2.500623 6.37609-2.570361 6.286426-2.570361S6.1868-2.520548 6.117061-2.361146C5.778331-1.444583 5.339975-.308842 3.616438-.308842H2.67995C2.540473-.308842 2.520548-.308842 2.460772-.318804C2.361146-.328767 2.331258-.33873 2.331258-.418431C2.331258-.448319 2.331258-.468244 2.381071-.647572L3.726027-6.027397Z'/>
<path id='g1-103' d='M4.692403-3.755915C4.702366-3.815691 4.722291-3.865504 4.722291-3.935243C4.722291-4.104608 4.60274-4.204234 4.433375-4.204234C4.333748-4.204234 4.064757-4.134496 4.024907-3.775841C3.845579-4.144458 3.496887-4.403487 3.098381-4.403487C1.96264-4.403487 .727273-3.008717 .727273-1.574097C.727273-.587796 1.334994 0 2.052304 0C2.6401 0 3.108344-.468244 3.20797-.577833L3.217933-.56787C3.008717 .318804 2.889166 .727273 2.889166 .747198C2.849315 .836862 2.510585 1.823163 1.454545 1.823163C1.265255 1.823163 .936488 1.8132 .657534 1.723537C.956413 1.633873 1.066002 1.374844 1.066002 1.205479C1.066002 1.046077 .956413 .856787 .687422 .856787C.468244 .856787 .14944 1.036115 .14944 1.43462C.14944 1.843088 .518057 2.042341 1.474471 2.042341C2.719801 2.042341 3.437111 1.265255 3.58655 .667497L4.692403-3.755915ZM3.39726-1.275218C3.337484-1.016189 3.108344-.767123 2.889166-.577833C2.67995-.398506 2.371108-.219178 2.082192-.219178C1.58406-.219178 1.43462-.737235 1.43462-1.135741C1.43462-1.613948 1.723537-2.789539 1.992528-3.297634C2.261519-3.785803 2.689913-4.184309 3.108344-4.184309C3.765878-4.184309 3.905355-3.377335 3.905355-3.327522S3.88543-3.217933 3.875467-3.178082L3.39726-1.275218Z'/>
<path id='g1-108' d='M2.570361-6.804483C2.570361-6.814446 2.570361-6.914072 2.440847-6.914072C2.211706-6.914072 1.484433-6.834371 1.225405-6.814446C1.145704-6.804483 1.036115-6.794521 1.036115-6.60523C1.036115-6.495641 1.135741-6.495641 1.285181-6.495641C1.763387-6.495641 1.77335-6.405978 1.77335-6.326276L1.743462-6.127024L.488169-1.145704C.458281-1.036115 .438356-.966376 .438356-.806974C.438356-.239103 .876712 .109589 1.344956 .109589C1.673724 .109589 1.92279-.089664 2.092154-.448319C2.271482-.826899 2.391034-1.404732 2.391034-1.424658C2.391034-1.524284 2.30137-1.524284 2.271482-1.524284C2.171856-1.524284 2.161893-1.484433 2.132005-1.344956C1.96264-.697385 1.77335-.109589 1.374844-.109589C1.075965-.109589 1.075965-.428394 1.075965-.56787C1.075965-.806974 1.085928-.856787 1.135741-1.046077L2.570361-6.804483Z'/>
<path id='g1-111' d='M4.672478-2.719801C4.672478-3.755915 3.975093-4.403487 3.078456-4.403487C1.743462-4.403487 .408468-2.988792 .408468-1.574097C.408468-.587796 1.075965 .109589 2.002491 .109589C3.327522 .109589 4.672478-1.265255 4.672478-2.719801ZM2.012453-.109589C1.58406-.109589 1.145704-.418431 1.145704-1.195517C1.145704-1.683686 1.404732-2.759651 1.723537-3.267746C2.221669-4.034869 2.789539-4.184309 3.068493-4.184309C3.646326-4.184309 3.945205-3.706102 3.945205-3.108344C3.945205-2.719801 3.745953-1.673724 3.367372-1.026152C3.01868-.448319 2.470735-.109589 2.012453-.109589Z'/>
<path id='g1-116' d='M2.052304-3.985056H2.988792C3.188045-3.985056 3.287671-3.985056 3.287671-4.184309C3.287671-4.293898 3.188045-4.293898 3.008717-4.293898H2.132005C2.49066-5.708593 2.540473-5.907846 2.540473-5.967621C2.540473-6.136986 2.420922-6.236613 2.251557-6.236613C2.221669-6.236613 1.942715-6.22665 1.853051-5.877958L1.464508-4.293898H.52802C.328767-4.293898 .229141-4.293898 .229141-4.104608C.229141-3.985056 .308842-3.985056 .508095-3.985056H1.384807C.667497-1.155666 .627646-.986301 .627646-.806974C.627646-.268991 1.006227 .109589 1.544209 .109589C2.560399 .109589 3.128269-1.344956 3.128269-1.424658C3.128269-1.524284 3.048568-1.524284 3.008717-1.524284C2.919054-1.524284 2.909091-1.494396 2.859278-1.384807C2.430884-.348692 1.902864-.109589 1.564134-.109589C1.354919-.109589 1.255293-.239103 1.255293-.56787C1.255293-.806974 1.275218-.876712 1.315068-1.046077L2.052304-3.985056Z'/>
</defs>
<g id='page1' transform='matrix(2.331429 0 0 2.331429 0 0)'>
<rect x='48.984323' y='29.299444' width='371.227282' height='28.973381' fill='#242424'/>
<g fill='#f6f3e8'>
<use x='48.984323' y='39.778458' xlink:href='#g1-64'/>
<use x='54.826993' y='39.778458' xlink:href='#g1-108'/>
<use x='57.995687' y='39.778458' xlink:href='#g1-111'/>
<use x='62.824809' y='39.778458' xlink:href='#g1-103'/>
<use x='67.934117' y='39.778458' xlink:href='#g1-76'/>
</g>
<rect x='48.984323' y='43.82835' height='.398484' width='25.729929' fill='#f6f3e8'/>
<g fill='#f6f3e8'>
<use x='55.648602' y='53.35213' xlink:href='#g1-64'/>
<use x='61.491272' y='53.35213' xlink:href='#g1-33'/>
<use x='78.677098' y='46.51826' xlink:href='#g3-61'/>
<use x='93.668051' y='39.778458' xlink:href='#g1-64'/>
</g>
<rect x='90.388692' y='43.82835' height='.398484' width='12.401386' fill='#f6f3e8'/>
<g fill='#f6f3e8'>
<use x='90.388692' y='53.35213' xlink:href='#g1-64'/>
<use x='96.231362' y='53.35213' xlink:href='#g1-33'/>
<use x='103.985592' y='46.51826' xlink:href='#g3-40'/>
<use x='111.526088' y='34.064914' xlink:href='#g2-78'/>
<use x='107.859966' y='37.053691' xlink:href='#g5-88'/>
<use x='108.602253' y='58.272825' xlink:href='#g2-105'/>
<use x='111.42098' y='58.272825' xlink:href='#g4-61'/>
<use x='117.536964' y='58.272825' xlink:href='#g4-49'/>
<use x='122.250475' y='46.51826' xlink:href='#g3-40'/>
<use x='126.124848' y='46.51826' xlink:href='#g1-116'/>
<use x='129.722483' y='48.012641' xlink:href='#g2-105'/>
<use x='133.03933' y='46.51826' xlink:href='#g1-108'/>
<use x='136.208023' y='46.51826' xlink:href='#g1-111'/>
<use x='141.037145' y='46.51826' xlink:href='#g1-103'/>
<use x='146.146453' y='46.51826' xlink:href='#g3-40'/>
<use x='150.020826' y='46.51826' xlink:href='#g1-27'/>
<use x='155.713618' y='48.012641' xlink:href='#g2-105'/>
<use x='159.030465' y='46.51826' xlink:href='#g3-41'/>
<use x='165.118705' y='46.51826' xlink:href='#g3-43'/>
<use x='175.081318' y='46.51826' xlink:href='#g3-40'/>
<use x='178.955692' y='46.51826' xlink:href='#g3-49'/>
<use x='186.150897' y='46.51826' xlink:href='#g0-0'/>
<use x='196.11351' y='46.51826' xlink:href='#g1-116'/>
<use x='199.711145' y='48.012641' xlink:href='#g2-105'/>
<use x='203.027992' y='46.51826' xlink:href='#g3-41'/>
<use x='206.902365' y='46.51826' xlink:href='#g1-108'/>
<use x='210.071059' y='46.51826' xlink:href='#g1-111'/>
<use x='214.900181' y='46.51826' xlink:href='#g1-103'/>
<use x='220.009489' y='46.51826' xlink:href='#g3-40'/>
<use x='223.883862' y='46.51826' xlink:href='#g3-49'/>
<use x='231.079067' y='46.51826' xlink:href='#g0-0'/>
<use x='241.041681' y='46.51826' xlink:href='#g1-27'/>
<use x='246.734473' y='48.012641' xlink:href='#g2-105'/>
<use x='250.051319' y='46.51826' xlink:href='#g3-41'/>
<use x='253.925693' y='46.51826' xlink:href='#g3-41'/>
<use x='257.800067' y='46.51826' xlink:href='#g3-41'/>
<use x='338.943272' y='46.51826' xlink:href='#g3-61'/>
<use x='353.125475' y='34.064914' xlink:href='#g2-78'/>
<use x='349.459352' y='37.053691' xlink:href='#g5-88'/>
<use x='350.20164' y='58.272825' xlink:href='#g2-105'/>
<use x='353.020367' y='58.272825' xlink:href='#g4-61'/>
<use x='359.136351' y='58.272825' xlink:href='#g4-49'/>
<use x='363.849861' y='46.51826' xlink:href='#g3-40'/>
<use x='367.724235' y='46.51826' xlink:href='#g1-116'/>
<use x='371.32187' y='48.012641' xlink:href='#g2-105'/>
<use x='379.113589' y='39.778458' xlink:href='#g1-64'/>
</g>
<rect x='375.83423' y='43.82835' height='.398484' width='12.401386' fill='#f6f3e8'/>
<g fill='#f6f3e8'>
<use x='375.83423' y='53.35213' xlink:href='#g1-64'/>
<use x='381.6769' y='53.35213' xlink:href='#g1-33'/>
<use x='389.43113' y='46.51826' xlink:href='#g1-108'/>
<use x='392.599824' y='46.51826' xlink:href='#g1-111'/>
<use x='397.428945' y='46.51826' xlink:href='#g1-103'/>
<use x='402.538253' y='46.51826' xlink:href='#g3-40'/>
<use x='406.412627' y='46.51826' xlink:href='#g1-27'/>
<use x='412.462858' y='46.51826' xlink:href='#g3-41'/>
<use x='416.337232' y='46.51826' xlink:href='#g3-41'/>
</g>
</g>
</svg>