<?xml version='1.0' encoding='UTF-8'?>
<!-- This file was generated by dvisvgm 2.8.1 -->
<svg version='1.1' xmlns='http://www.w3.org/2000/svg' xmlns:xlink='http://www.w3.org/1999/xlink' width='324.320314pt' height='127.661114pt' viewBox='382.000943 65.986843 324.320314 127.661114'>
<defs>
<path id='g4-49' d='M2.336239-4.435367C2.336239-4.623661 2.322291-4.630635 2.127024-4.630635C1.680697-4.191283 1.046077-4.184309 .760149-4.184309V-3.93325C.927522-3.93325 1.387796-3.93325 1.771357-4.128518V-.571856C1.771357-.341719 1.771357-.251059 1.073973-.251059H.808966V0C.934496-.006974 1.792279-.027895 2.050311-.027895C2.266501-.027895 3.145205-.006974 3.29863 0V-.251059H3.033624C2.336239-.251059 2.336239-.341719 2.336239-.571856V-4.435367Z'/>
<path id='g4-61' d='M5.355915-2.343213C5.460523-2.343213 5.620922-2.343213 5.620922-2.517559C5.620922-2.684932 5.453549-2.684932 5.362889-2.684932H.746202C.655542-2.684932 .488169-2.684932 .488169-2.517559C.488169-2.343213 .648568-2.343213 .753176-2.343213H5.355915ZM5.362889-.808966C5.453549-.808966 5.620922-.808966 5.620922-.976339C5.620922-1.150685 5.460523-1.150685 5.355915-1.150685H.753176C.648568-1.150685 .488169-1.150685 .488169-.976339C.488169-.808966 .655542-.808966 .746202-.808966H5.362889Z'/>
<path id='g5-80' d='M4.194271 5.32005L.657534 9.693649C.577833 9.793275 .56787 9.8132 .56787 9.853051C.56787 9.96264 .657534 9.96264 .836862 9.96264H9.09589L9.952677 7.481943H9.703611C9.454545 8.229141 8.787049 8.836862 7.940224 9.125778C7.780822 9.175592 7.0934 9.414695 5.628892 9.414695H1.39477L4.851806 5.140722C4.921544 5.051059 4.941469 5.021171 4.941469 4.98132S4.931507 4.931507 4.871731 4.841843L1.633873 .398506H5.579078C6.714819 .398506 9.006227 .468244 9.703611 2.331258H9.952677L9.09589 0H.836862C.56787 0 .557908 .009963 .557908 .318804L4.194271 5.32005Z'/>
<path id='g0-106' d='M1.58406-7.113325C1.58406-7.292653 1.58406-7.47198 1.384807-7.47198S1.185554-7.292653 1.185554-7.113325V2.132005C1.185554 2.311333 1.185554 2.49066 1.384807 2.49066S1.58406 2.311333 1.58406 2.132005V-7.113325Z'/>
<path id='g2-75' d='M3.989041-2.803487C3.961146-2.859278 3.947198-2.880199 3.947198-2.887173C3.947198-2.901121 3.954172-2.908095 4.11457-3.019676L4.818929-3.514819C5.739477-4.163387 6.171856-4.470237 6.666999-4.51208C6.743711-4.519054 6.827397-4.526027 6.827397-4.665504C6.827397-4.721295 6.77858-4.756164 6.736737-4.756164C6.590286-4.756164 6.408966-4.735243 6.255542-4.735243C6.067248-4.735243 5.6-4.763138 5.411706-4.763138C5.369863-4.763138 5.265255-4.763138 5.265255-4.609714C5.265255-4.60274 5.265255-4.519054 5.369863-4.51208C5.453549-4.505106 5.544209-4.491158 5.544209-4.414446C5.544209-4.288917 5.32802-4.135492 5.23736-4.072727L2.329265-2.022416L2.880199-4.219178C2.942964-4.456289 2.949938-4.51208 3.493898-4.51208C3.605479-4.51208 3.703113-4.51208 3.703113-4.658531C3.703113-4.721295 3.66127-4.763138 3.591532-4.763138C3.38929-4.763138 2.880199-4.735243 2.677958-4.735243C2.559402-4.735243 2.315318-4.735243 2.196762-4.742217C2.057285-4.749191 1.889913-4.763138 1.75741-4.763138C1.715567-4.763138 1.610959-4.763138 1.610959-4.609714C1.610959-4.51208 1.687671-4.51208 1.841096-4.51208C1.952677-4.51208 1.980573-4.51208 2.106102-4.498132C2.245579-4.484184 2.259527-4.470237 2.259527-4.400498C2.259527-4.38655 2.259527-4.351681 2.231631-4.247073L1.30411-.54396C1.248319-.306849 1.234371-.251059 .690411-.251059C.564882-.251059 .481196-.251059 .481196-.097634C.481196-.09066 .481196 0 .592777 0C.795019 0 1.297136-.027895 1.499377-.027895C1.617933-.027895 1.862017-.027895 1.980573-.020922C2.12005-.013948 2.294396 0 2.426899 0C2.468742 0 2.57335 0 2.57335-.153425C2.57335-.251059 2.489664-.251059 2.350187-.251059C2.343213-.251059 2.21071-.251059 2.085181-.265006C1.924782-.278954 1.924782-.299875 1.924782-.369614C1.924782-.425405 1.994521-.683437 2.252553-1.708593L3.410212-2.524533L4.42142-.564882C4.470237-.474222 4.470237-.467248 4.470237-.432379C4.470237-.27198 4.274969-.251059 4.14944-.251059C4.065753-.251059 3.96812-.251059 3.96812-.097634C3.96812-.09066 3.975093 0 4.086675 0C4.281943 0 4.78406-.027895 4.979328-.027895C5.188543-.027895 5.467497 0 5.662765 0C5.753425 0 5.802242-.048817 5.802242-.146451C5.802242-.251059 5.711582-.251059 5.641843-.251059C5.516314-.251059 5.300125-.258032 5.181569-.481196L3.989041-2.803487Z'/>
<path id='g2-106' d='M3.061519-4.358655C3.061519-4.47721 2.970859-4.623661 2.782565-4.623661C2.580324-4.623661 2.39203-4.428394 2.39203-4.2401C2.39203-4.128518 2.475716-3.975093 2.670984-3.975093C2.859278-3.975093 3.061519-4.156413 3.061519-4.358655ZM1.583064 .341719C1.464508 .822914 1.094894 1.227397 .683437 1.227397C.592777 1.227397 .509091 1.21345 .432379 1.185554C.613699 1.101868 .669489 .934496 .669489 .829888C.669489 .662516 .536986 .571856 .397509 .571856C.18132 .571856 0 .760149 0 .983313C0 1.248319 .27198 1.422665 .690411 1.422665S1.924782 1.171606 2.140971 .320797L2.768618-2.175841C2.789539-2.252553 2.803487-2.315318 2.803487-2.419925C2.803487-2.803487 2.475716-3.075467 2.057285-3.075467C1.283188-3.075467 .836862-2.106102 .836862-2.008468C.836862-1.917808 .934496-1.917808 .955417-1.917808C1.039103-1.917808 1.046077-1.93873 1.094894-2.043337C1.26924-2.447821 1.63188-2.880199 2.036364-2.880199C2.21071-2.880199 2.273474-2.761644 2.273474-2.538481C2.273474-2.461768 2.259527-2.364134 2.252553-2.329265L1.583064 .341719Z'/>
<path id='g2-107' d='M2.182814-4.630635C2.189788-4.644583 2.21071-4.735243 2.21071-4.742217C2.21071-4.777086 2.182814-4.839851 2.099128-4.839851C1.959651-4.839851 1.380822-4.78406 1.206476-4.770112C1.150685-4.763138 1.053051-4.756164 1.053051-4.609714C1.053051-4.51208 1.150685-4.51208 1.234371-4.51208C1.569116-4.51208 1.569116-4.463263 1.569116-4.407472C1.569116-4.358655 1.555168-4.316812 1.54122-4.254047L.557908-.306849C.523039-.18132 .523039-.167372 .523039-.153425C.523039-.048817 .606725 .069738 .760149 .069738C.948443 .069738 1.039103-.069738 1.080946-.223163C1.094894-.251059 1.39477-1.478456 1.422665-1.57609C1.917808-1.527273 2.315318-1.366874 2.315318-1.004234C2.315318-.969365 2.315318-.934496 2.30137-.864757C2.273474-.760149 2.273474-.72528 2.273474-.648568C2.273474-.153425 2.677958 .069738 3.012702 .069738C3.689166 .069738 3.898381-.990286 3.898381-.99726C3.898381-1.08792 3.807721-1.08792 3.7868-1.08792C3.689166-1.08792 3.682192-1.053051 3.647323-.920548C3.563636-.620672 3.375342-.125529 3.033624-.125529C2.84533-.125529 2.789539-.299875 2.789539-.488169C2.789539-.606725 2.789539-.620672 2.831382-.801993C2.838356-.822914 2.866252-.941469 2.866252-1.018182C2.866252-1.638854 2.02939-1.736488 1.736488-1.75741C1.93873-1.882939 2.196762-2.113076 2.315318-2.217684C2.670984-2.552428 3.019676-2.880199 3.410212-2.880199C3.493898-2.880199 3.584558-2.859278 3.640349-2.789539C3.340473-2.740722 3.277709-2.503611 3.277709-2.399004C3.277709-2.245579 3.396264-2.140971 3.556663-2.140971C3.744956-2.140971 3.954172-2.294396 3.954172-2.587298C3.954172-2.817435 3.7868-3.075467 3.417186-3.075467C3.019676-3.075467 2.657036-2.789539 2.30137-2.461768C2.008468-2.182814 1.778331-1.966625 1.492403-1.84807L2.182814-4.630635Z'/>
<path id='g3-40' d='M3.297634 2.391034C3.297634 2.361146 3.297634 2.34122 3.128269 2.171856C1.882939 .916563 1.564134-.966376 1.564134-2.49066C1.564134-4.224159 1.942715-5.957659 3.16812-7.202989C3.297634-7.32254 3.297634-7.342466 3.297634-7.372354C3.297634-7.442092 3.257783-7.47198 3.198007-7.47198C3.098381-7.47198 2.201743-6.794521 1.613948-5.529265C1.105853-4.433375 .986301-3.327522 .986301-2.49066C.986301-1.713574 1.09589-.508095 1.643836 .617684C2.241594 1.843088 3.098381 2.49066 3.198007 2.49066C3.257783 2.49066 3.297634 2.460772 3.297634 2.391034Z'/>
<path id='g3-41' d='M2.879203-2.49066C2.879203-3.267746 2.769614-4.473225 2.221669-5.599004C1.62391-6.824408 .767123-7.47198 .667497-7.47198C.607721-7.47198 .56787-7.43213 .56787-7.372354C.56787-7.342466 .56787-7.32254 .757161-7.143213C1.733499-6.156912 2.30137-4.572852 2.30137-2.49066C2.30137-.787049 1.932752 .966376 .697385 2.221669C.56787 2.34122 .56787 2.361146 .56787 2.391034C.56787 2.450809 .607721 2.49066 .667497 2.49066C.767123 2.49066 1.663761 1.8132 2.251557 .547945C2.759651-.547945 2.879203-1.653798 2.879203-2.49066Z'/>
<path id='g3-61' d='M6.844334-3.257783C6.993773-3.257783 7.183064-3.257783 7.183064-3.457036S6.993773-3.656289 6.854296-3.656289H.886675C.747198-3.656289 .557908-3.656289 .557908-3.457036S.747198-3.257783 .896638-3.257783H6.844334ZM6.854296-1.325031C6.993773-1.325031 7.183064-1.325031 7.183064-1.524284S6.993773-1.723537 6.844334-1.723537H.896638C.747198-1.723537 .557908-1.723537 .557908-1.524284S.747198-1.325031 .886675-1.325031H6.854296Z'/>
<path id='g1-67' d='M7.571606-6.924035C7.571606-6.953923 7.551681-7.023661 7.462017-7.023661C7.43213-7.023661 7.422167-7.013699 7.312578-6.90411L6.615193-6.136986C6.525529-6.276463 6.067248-7.023661 4.961395-7.023661C2.739726-7.023661 .498132-4.821918 .498132-2.510585C.498132-.86675 1.673724 .219178 3.198007 .219178C4.064757 .219178 4.821918-.179328 5.349938-.637609C6.276463-1.454545 6.445828-2.361146 6.445828-2.391034C6.445828-2.49066 6.346202-2.49066 6.326276-2.49066C6.266501-2.49066 6.216687-2.470735 6.196762-2.391034C6.107098-2.102117 5.877958-1.39477 5.190535-.816936C4.503113-.259029 3.875467-.089664 3.35741-.089664C2.460772-.089664 1.404732-.607721 1.404732-2.161893C1.404732-2.729763 1.613948-4.343711 2.610212-5.50934C3.217933-6.216687 4.154421-6.714819 5.041096-6.714819C6.057285-6.714819 6.645081-5.947696 6.645081-4.79203C6.645081-4.393524 6.615193-4.383562 6.615193-4.283935S6.724782-4.184309 6.764633-4.184309C6.894147-4.184309 6.894147-4.204234 6.94396-4.383562L7.571606-6.924035Z'/>
<path id='g1-80' d='M3.01868-3.148194H4.712329C6.127024-3.148194 7.511831-4.184309 7.511831-5.300125C7.511831-6.067248 6.854296-6.804483 5.549191-6.804483H2.321295C2.132005-6.804483 2.022416-6.804483 2.022416-6.615193C2.022416-6.495641 2.11208-6.495641 2.311333-6.495641C2.440847-6.495641 2.620174-6.485679 2.739726-6.475716C2.899128-6.455791 2.958904-6.425903 2.958904-6.316314C2.958904-6.276463 2.948941-6.246575 2.919054-6.127024L1.58406-.777086C1.484433-.388543 1.464508-.308842 .67746-.308842C.508095-.308842 .398506-.308842 .398506-.119552C.398506 0 .518057 0 .547945 0C.826899 0 1.534247-.029888 1.8132-.029888C2.022416-.029888 2.241594-.019925 2.450809-.019925C2.669988-.019925 2.889166 0 3.098381 0C3.16812 0 3.297634 0 3.297634-.199253C3.297634-.308842 3.20797-.308842 3.01868-.308842C2.650062-.308842 2.371108-.308842 2.371108-.488169C2.371108-.547945 2.391034-.597758 2.400996-.657534L3.01868-3.148194ZM3.73599-6.117061C3.825654-6.465753 3.845579-6.495641 4.273973-6.495641H5.230386C6.057285-6.495641 6.585305-6.22665 6.585305-5.539228C6.585305-5.150685 6.386052-4.293898 5.997509-3.935243C5.499377-3.486924 4.901619-3.407223 4.463263-3.407223H3.058531L3.73599-6.117061Z'/>
<path id='g1-120' d='M3.327522-3.008717C3.387298-3.267746 3.616438-4.184309 4.313823-4.184309C4.363636-4.184309 4.60274-4.184309 4.811955-4.054795C4.533001-4.004981 4.333748-3.755915 4.333748-3.516812C4.333748-3.35741 4.443337-3.16812 4.712329-3.16812C4.931507-3.16812 5.250311-3.347447 5.250311-3.745953C5.250311-4.26401 4.662516-4.403487 4.323786-4.403487C3.745953-4.403487 3.39726-3.875467 3.277709-3.646326C3.028643-4.303861 2.49066-4.403487 2.201743-4.403487C1.165629-4.403487 .597758-3.118306 .597758-2.86924C.597758-2.769614 .697385-2.769614 .71731-2.769614C.797011-2.769614 .826899-2.789539 .846824-2.879203C1.185554-3.935243 1.843088-4.184309 2.181818-4.184309C2.371108-4.184309 2.719801-4.094645 2.719801-3.516812C2.719801-3.20797 2.550436-2.540473 2.181818-1.145704C2.022416-.52802 1.673724-.109589 1.235367-.109589C1.175592-.109589 .946451-.109589 .737235-.239103C.986301-.288917 1.205479-.498132 1.205479-.777086C1.205479-1.046077 .986301-1.125778 .836862-1.125778C.537983-1.125778 .288917-.86675 .288917-.547945C.288917-.089664 .787049 .109589 1.225405 .109589C1.882939 .109589 2.241594-.587796 2.271482-.647572C2.391034-.278954 2.749689 .109589 3.347447 .109589C4.373599 .109589 4.941469-1.175592 4.941469-1.424658C4.941469-1.524284 4.851806-1.524284 4.821918-1.524284C4.732254-1.524284 4.712329-1.484433 4.692403-1.414695C4.363636-.348692 3.686177-.109589 3.367372-.109589C2.978829-.109589 2.819427-.428394 2.819427-.767123C2.819427-.986301 2.879203-1.205479 2.988792-1.643836L3.327522-3.008717Z'/>
</defs>
<g id='page1' transform='matrix(2.331429 0 0 2.331429 0 0)'>
<rect x='163.848444' y='28.30318' width='139.107978' height='54.756605' fill='#242424'/>
<g fill='#f6f3e8'>
<use x='163.848444' y='42.514962' xlink:href='#g1-80'/>
<use x='171.628305' y='42.514962' xlink:href='#g3-40'/>
<use x='175.502679' y='42.514962' xlink:href='#g1-67'/>
<use x='182.623194' y='44.009342' xlink:href='#g2-107'/>
<use x='187.524978' y='42.514962' xlink:href='#g0-106'/>
<use x='190.292387' y='42.514962' xlink:href='#g1-120'/>
<use x='195.986319' y='42.514962' xlink:href='#g3-41'/>
<use x='202.628008' y='42.514962' xlink:href='#g3-61'/>
<use x='214.339602' y='35.77516' xlink:href='#g1-80'/>
<use x='222.119464' y='35.77516' xlink:href='#g3-40'/>
<use x='225.993837' y='35.77516' xlink:href='#g1-120'/>
<use x='231.68777' y='35.77516' xlink:href='#g0-106'/>
<use x='234.455178' y='35.77516' xlink:href='#g1-67'/>
<use x='241.575693' y='37.269541' xlink:href='#g2-107'/>
<use x='246.477477' y='35.77516' xlink:href='#g3-41'/>
<use x='250.351851' y='35.77516' xlink:href='#g1-80'/>
<use x='258.131713' y='35.77516' xlink:href='#g3-40'/>
<use x='262.006086' y='35.77516' xlink:href='#g1-67'/>
<use x='269.126601' y='37.269541' xlink:href='#g2-107'/>
<use x='274.028386' y='35.77516' xlink:href='#g3-41'/>
</g>
<rect x='214.339602' y='39.825052' height='.398484' width='63.563137' fill='#f6f3e8'/>
<g fill='#f6f3e8'>
<use x='235.509908' y='49.348832' xlink:href='#g1-80'/>
<use x='243.28977' y='49.348832' xlink:href='#g3-40'/>
<use x='247.164144' y='49.348832' xlink:href='#g1-120'/>
<use x='252.858076' y='49.348832' xlink:href='#g3-41'/>
<use x='202.628008' y='70.036344' xlink:href='#g3-61'/>
<use x='226.866433' y='63.296543' xlink:href='#g1-80'/>
<use x='234.646295' y='63.296543' xlink:href='#g3-40'/>
<use x='238.520669' y='63.296543' xlink:href='#g1-120'/>
<use x='244.214601' y='63.296543' xlink:href='#g0-106'/>
<use x='246.982009' y='63.296543' xlink:href='#g1-67'/>
<use x='254.102524' y='64.790924' xlink:href='#g2-107'/>
<use x='259.004308' y='63.296543' xlink:href='#g3-41'/>
<use x='262.878682' y='63.296543' xlink:href='#g1-80'/>
<use x='270.658544' y='63.296543' xlink:href='#g3-40'/>
<use x='274.532918' y='63.296543' xlink:href='#g1-67'/>
<use x='281.653433' y='64.790924' xlink:href='#g2-107'/>
<use x='286.555217' y='63.296543' xlink:href='#g3-41'/>
</g>
<rect x='214.339602' y='67.346435' height='.398484' width='88.616799' fill='#f6f3e8'/>
<g fill='#f6f3e8'>
<use x='214.339602' y='71.242879' xlink:href='#g5-80'/>
<use x='224.855754' y='73.705842' xlink:href='#g2-75'/>
<use x='224.855754' y='81.703758' xlink:href='#g2-106'/>
<use x='228.555443' y='81.703758' xlink:href='#g4-61'/>
<use x='234.671427' y='81.703758' xlink:href='#g4-49'/>
<use x='240.801192' y='78.71492' xlink:href='#g1-80'/>
<use x='248.581054' y='78.71492' xlink:href='#g3-40'/>
<use x='252.455428' y='78.71492' xlink:href='#g1-120'/>
<use x='258.14936' y='78.71492' xlink:href='#g0-106'/>
<use x='260.916769' y='78.71492' xlink:href='#g1-67'/>
<use x='268.037283' y='80.209301' xlink:href='#g2-106'/>
<use x='272.235104' y='78.71492' xlink:href='#g3-41'/>
<use x='276.109477' y='78.71492' xlink:href='#g1-80'/>
<use x='283.889339' y='78.71492' xlink:href='#g3-40'/>
<use x='287.763713' y='78.71492' xlink:href='#g1-67'/>
<use x='294.884228' y='80.209301' xlink:href='#g2-106'/>
<use x='299.082048' y='78.71492' xlink:href='#g3-41'/>
</g>
</g>
</svg>