<?xml version='1.0' encoding='UTF-8'?>
<!-- This file was generated by dvisvgm 2.8.1 -->
<svg version='1.1' xmlns='http://www.w3.org/2000/svg' xmlns:xlink='http://www.w3.org/1999/xlink' width='91.714991pt' height='55.745808pt' viewBox='499.697226 42.759632 91.714991 55.745808'>
<defs>
<path id='g0-120' d='M3.327522-3.008717C3.387298-3.267746 3.616438-4.184309 4.313823-4.184309C4.363636-4.184309 4.60274-4.184309 4.811955-4.054795C4.533001-4.004981 4.333748-3.755915 4.333748-3.516812C4.333748-3.35741 4.443337-3.16812 4.712329-3.16812C4.931507-3.16812 5.250311-3.347447 5.250311-3.745953C5.250311-4.26401 4.662516-4.403487 4.323786-4.403487C3.745953-4.403487 3.39726-3.875467 3.277709-3.646326C3.028643-4.303861 2.49066-4.403487 2.201743-4.403487C1.165629-4.403487 .597758-3.118306 .597758-2.86924C.597758-2.769614 .697385-2.769614 .71731-2.769614C.797011-2.769614 .826899-2.789539 .846824-2.879203C1.185554-3.935243 1.843088-4.184309 2.181818-4.184309C2.371108-4.184309 2.719801-4.094645 2.719801-3.516812C2.719801-3.20797 2.550436-2.540473 2.181818-1.145704C2.022416-.52802 1.673724-.109589 1.235367-.109589C1.175592-.109589 .946451-.109589 .737235-.239103C.986301-.288917 1.205479-.498132 1.205479-.777086C1.205479-1.046077 .986301-1.125778 .836862-1.125778C.537983-1.125778 .288917-.86675 .288917-.547945C.288917-.089664 .787049 .109589 1.225405 .109589C1.882939 .109589 2.241594-.587796 2.271482-.647572C2.391034-.278954 2.749689 .109589 3.347447 .109589C4.373599 .109589 4.941469-1.175592 4.941469-1.424658C4.941469-1.524284 4.851806-1.524284 4.821918-1.524284C4.732254-1.524284 4.712329-1.484433 4.692403-1.414695C4.363636-.348692 3.686177-.109589 3.367372-.109589C2.978829-.109589 2.819427-.428394 2.819427-.767123C2.819427-.986301 2.879203-1.205479 2.988792-1.643836L3.327522-3.008717Z'/>
<path id='g2-18' d='M6.973848 23.402242C6.973848 23.362391 6.953923 23.342466 6.933998 23.312578C6.56538 22.94396 5.897883 22.276463 5.230386 21.200498C3.626401 18.630137 2.899128 15.392279 2.899128 11.556663C2.899128 8.876712 3.257783 5.419676 4.901619 2.450809C5.688667 1.036115 6.505604 .219178 6.94396-.219178C6.973848-.249066 6.973848-.268991 6.973848-.298879C6.973848-.398506 6.90411-.398506 6.764633-.398506S6.60523-.398506 6.455791-.249066C3.118306 2.789539 2.072229 7.352428 2.072229 11.5467C2.072229 15.462017 2.968867 19.407223 5.499377 22.386052C5.69863 22.615193 6.07721 23.023661 6.485679 23.382316C6.60523 23.501868 6.625156 23.501868 6.764633 23.501868S6.973848 23.501868 6.973848 23.402242Z'/>
<path id='g2-19' d='M5.250311 11.556663C5.250311 7.641345 4.353674 3.696139 1.823163 .71731C1.62391 .488169 1.24533 .079701 .836862-.278954C.71731-.398506 .697385-.398506 .557908-.398506C.438356-.398506 .348692-.398506 .348692-.298879C.348692-.259029 .388543-.219178 .408468-.199253C.757161 .159402 1.424658 .826899 2.092154 1.902864C3.696139 4.473225 4.423412 7.711083 4.423412 11.5467C4.423412 14.22665 4.064757 17.683686 2.420922 20.652553C1.633873 22.067248 .806974 22.894147 .388543 23.312578C.368618 23.342466 .348692 23.372354 .348692 23.402242C.348692 23.501868 .438356 23.501868 .557908 23.501868C.697385 23.501868 .71731 23.501868 .86675 23.352428C4.204234 20.313823 5.250311 15.750934 5.250311 11.556663Z'/>
<path id='g1-49' d='M2.929016-6.37609C2.929016-6.615193 2.929016-6.635118 2.699875-6.635118C2.082192-5.997509 1.205479-5.997509 .886675-5.997509V-5.688667C1.085928-5.688667 1.673724-5.688667 2.191781-5.947696V-.787049C2.191781-.428394 2.161893-.308842 1.265255-.308842H.946451V0C1.295143-.029888 2.161893-.029888 2.560399-.029888S3.825654-.029888 4.174346 0V-.308842H3.855542C2.958904-.308842 2.929016-.418431 2.929016-.787049V-6.37609Z'/>
<path id='g1-61' d='M6.844334-3.257783C6.993773-3.257783 7.183064-3.257783 7.183064-3.457036S6.993773-3.656289 6.854296-3.656289H.886675C.747198-3.656289 .557908-3.656289 .557908-3.457036S.747198-3.257783 .896638-3.257783H6.844334ZM6.854296-1.325031C6.993773-1.325031 7.183064-1.325031 7.183064-1.524284S6.993773-1.723537 6.844334-1.723537H.896638C.747198-1.723537 .557908-1.723537 .557908-1.524284S.747198-1.325031 .886675-1.325031H6.854296Z'/>
<path id='g1-126' d='M4.144458-6.505604L3.985056-6.655044C3.985056-6.645081 3.606476-6.176837 3.16812-6.176837C2.938979-6.176837 2.689913-6.326276 2.520548-6.425903C2.251557-6.585305 2.072229-6.655044 1.902864-6.655044C1.524284-6.655044 1.334994-6.435866 .826899-5.877958L.986301-5.728518C.986301-5.738481 1.364882-6.206725 1.803238-6.206725C2.032379-6.206725 2.281445-6.057285 2.450809-5.957659C2.719801-5.798257 2.899128-5.728518 3.068493-5.728518C3.447073-5.728518 3.636364-5.947696 4.144458-6.505604Z'/>
</defs>
<g id='page1' transform='matrix(2.331429 0 0 2.331429 0 0)'>
<rect x='214.330918' y='18.340529' width='39.338538' height='23.910579' fill='#242424'/>
<g fill='#f6f3e8'>
<use x='214.963966' y='32.786475' xlink:href='#g1-126'/>
<use x='214.330918' y='32.786475' xlink:href='#g0-120'/>
<use x='222.792169' y='32.786475' xlink:href='#g1-61'/>
<use x='233.308249' y='18.739024' xlink:href='#g2-18'/>
<use x='241.354477' y='38.764059' xlink:href='#g1-49'/>
<use x='240.641893' y='26.80889' xlink:href='#g0-120'/>
<use x='246.335812' y='18.739024' xlink:href='#g2-19'/>
</g>
</g>
</svg>